<?xml version="1.0" encoding="utf-8" standalone="no"?>
<!DOCTYPE svg PUBLIC "-//W3C//DTD SVG 1.1//EN"
  "http://www.w3.org/Graphics/SVG/1.1/DTD/svg11.dtd">
<svg xmlns:xlink="http://www.w3.org/1999/xlink" width="2274.986563pt" height="401.78455pt" viewBox="0 0 2274.986563 401.78455" xmlns="http://www.w3.org/2000/svg" version="1.1">
 <metadata>
  <rdf:RDF xmlns:dc="http://purl.org/dc/elements/1.1/" xmlns:cc="http://creativecommons.org/ns#" xmlns:rdf="http://www.w3.org/1999/02/22-rdf-syntax-ns#">
   <cc:Work>
    <dc:type rdf:resource="http://purl.org/dc/dcmitype/StillImage"/>
    <dc:date>2024-04-02T11:44:21.487724</dc:date>
    <dc:format>image/svg+xml</dc:format>
    <dc:creator>
     <cc:Agent>
      <dc:title>Matplotlib v3.8.3, https://matplotlib.org/</dc:title>
     </cc:Agent>
    </dc:creator>
   </cc:Work>
  </rdf:RDF>
 </metadata>
 <defs>
  <style type="text/css">*{stroke-linejoin: round; stroke-linecap: butt}</style>
 </defs>
 <g id="figure_1">
  <g id="patch_1">
   <path d="M 0 401.78455 
L 2274.986563 401.78455 
L 2274.986563 0 
L 0 0 
z
" style="fill: #ffffff"/>
  </g>
  <g id="axes_1">
   <g id="patch_2">
    <path d="M 83.426563 343.532987 
L 555.986562 343.532987 
L 555.986562 10.473299 
L 83.426563 10.473299 
z
" style="fill: #ffffff"/>
   </g>
   <g id="matplotlib.axis_1">
    <g id="xtick_1">
     <g id="line2d_1">
      <path d="M 158.606562 343.532987 
L 158.606562 10.473299 
" clip-path="url(#p6c8675ff9e)" style="fill: none; stroke: #808080; stroke-opacity: 0.5; stroke-width: 0.8; stroke-linecap: square"/>
     </g>
     <g id="line2d_2">
      <defs>
       <path id="m0014144dd7" d="M 0 0 
L 0 -3.5 
" style="stroke: #000000; stroke-width: 0.8"/>
      </defs>
      <g>
       <use xlink:href="#m0014144dd7" x="158.606562" y="343.532987" style="stroke: #000000; stroke-width: 0.8"/>
      </g>
     </g>
     <g id="text_1">
      <!-- 0.2 -->
      <g transform="translate(142.703437 362.229862) scale(0.2 -0.2)">
       <defs>
        <path id="DejaVuSans-30" d="M 2034 4250 
Q 1547 4250 1301 3770 
Q 1056 3291 1056 2328 
Q 1056 1369 1301 889 
Q 1547 409 2034 409 
Q 2525 409 2770 889 
Q 3016 1369 3016 2328 
Q 3016 3291 2770 3770 
Q 2525 4250 2034 4250 
z
M 2034 4750 
Q 2819 4750 3233 4129 
Q 3647 3509 3647 2328 
Q 3647 1150 3233 529 
Q 2819 -91 2034 -91 
Q 1250 -91 836 529 
Q 422 1150 422 2328 
Q 422 3509 836 4129 
Q 1250 4750 2034 4750 
z
" transform="scale(0.015625)"/>
        <path id="DejaVuSans-2e" d="M 684 794 
L 1344 794 
L 1344 0 
L 684 0 
L 684 794 
z
" transform="scale(0.015625)"/>
        <path id="DejaVuSans-32" d="M 1228 531 
L 3431 531 
L 3431 0 
L 469 0 
L 469 531 
Q 828 903 1448 1529 
Q 2069 2156 2228 2338 
Q 2531 2678 2651 2914 
Q 2772 3150 2772 3378 
Q 2772 3750 2511 3984 
Q 2250 4219 1831 4219 
Q 1534 4219 1204 4116 
Q 875 4013 500 3803 
L 500 4441 
Q 881 4594 1212 4672 
Q 1544 4750 1819 4750 
Q 2544 4750 2975 4387 
Q 3406 4025 3406 3419 
Q 3406 3131 3298 2873 
Q 3191 2616 2906 2266 
Q 2828 2175 2409 1742 
Q 1991 1309 1228 531 
z
" transform="scale(0.015625)"/>
       </defs>
       <use xlink:href="#DejaVuSans-30"/>
       <use xlink:href="#DejaVuSans-2e" x="63.623047"/>
       <use xlink:href="#DejaVuSans-32" x="95.410156"/>
      </g>
     </g>
    </g>
    <g id="xtick_2">
     <g id="line2d_3">
      <path d="M 266.006562 343.532987 
L 266.006562 10.473299 
" clip-path="url(#p6c8675ff9e)" style="fill: none; stroke: #808080; stroke-opacity: 0.5; stroke-width: 0.8; stroke-linecap: square"/>
     </g>
     <g id="line2d_4">
      <g>
       <use xlink:href="#m0014144dd7" x="266.006562" y="343.532987" style="stroke: #000000; stroke-width: 0.8"/>
      </g>
     </g>
     <g id="text_2">
      <!-- 0.4 -->
      <g transform="translate(250.103437 362.229862) scale(0.2 -0.2)">
       <defs>
        <path id="DejaVuSans-34" d="M 2419 4116 
L 825 1625 
L 2419 1625 
L 2419 4116 
z
M 2253 4666 
L 3047 4666 
L 3047 1625 
L 3713 1625 
L 3713 1100 
L 3047 1100 
L 3047 0 
L 2419 0 
L 2419 1100 
L 313 1100 
L 313 1709 
L 2253 4666 
z
" transform="scale(0.015625)"/>
       </defs>
       <use xlink:href="#DejaVuSans-30"/>
       <use xlink:href="#DejaVuSans-2e" x="63.623047"/>
       <use xlink:href="#DejaVuSans-34" x="95.410156"/>
      </g>
     </g>
    </g>
    <g id="xtick_3">
     <g id="line2d_5">
      <path d="M 373.406562 343.532987 
L 373.406562 10.473299 
" clip-path="url(#p6c8675ff9e)" style="fill: none; stroke: #808080; stroke-opacity: 0.5; stroke-width: 0.8; stroke-linecap: square"/>
     </g>
     <g id="line2d_6">
      <g>
       <use xlink:href="#m0014144dd7" x="373.406562" y="343.532987" style="stroke: #000000; stroke-width: 0.8"/>
      </g>
     </g>
     <g id="text_3">
      <!-- 0.6 -->
      <g transform="translate(357.503437 362.229862) scale(0.2 -0.2)">
       <defs>
        <path id="DejaVuSans-36" d="M 2113 2584 
Q 1688 2584 1439 2293 
Q 1191 2003 1191 1497 
Q 1191 994 1439 701 
Q 1688 409 2113 409 
Q 2538 409 2786 701 
Q 3034 994 3034 1497 
Q 3034 2003 2786 2293 
Q 2538 2584 2113 2584 
z
M 3366 4563 
L 3366 3988 
Q 3128 4100 2886 4159 
Q 2644 4219 2406 4219 
Q 1781 4219 1451 3797 
Q 1122 3375 1075 2522 
Q 1259 2794 1537 2939 
Q 1816 3084 2150 3084 
Q 2853 3084 3261 2657 
Q 3669 2231 3669 1497 
Q 3669 778 3244 343 
Q 2819 -91 2113 -91 
Q 1303 -91 875 529 
Q 447 1150 447 2328 
Q 447 3434 972 4092 
Q 1497 4750 2381 4750 
Q 2619 4750 2861 4703 
Q 3103 4656 3366 4563 
z
" transform="scale(0.015625)"/>
       </defs>
       <use xlink:href="#DejaVuSans-30"/>
       <use xlink:href="#DejaVuSans-2e" x="63.623047"/>
       <use xlink:href="#DejaVuSans-36" x="95.410156"/>
      </g>
     </g>
    </g>
    <g id="xtick_4">
     <g id="line2d_7">
      <path d="M 480.806562 343.532987 
L 480.806562 10.473299 
" clip-path="url(#p6c8675ff9e)" style="fill: none; stroke: #808080; stroke-opacity: 0.5; stroke-width: 0.8; stroke-linecap: square"/>
     </g>
     <g id="line2d_8">
      <g>
       <use xlink:href="#m0014144dd7" x="480.806562" y="343.532987" style="stroke: #000000; stroke-width: 0.8"/>
      </g>
     </g>
     <g id="text_4">
      <!-- 0.8 -->
      <g transform="translate(464.903437 362.229862) scale(0.2 -0.2)">
       <defs>
        <path id="DejaVuSans-38" d="M 2034 2216 
Q 1584 2216 1326 1975 
Q 1069 1734 1069 1313 
Q 1069 891 1326 650 
Q 1584 409 2034 409 
Q 2484 409 2743 651 
Q 3003 894 3003 1313 
Q 3003 1734 2745 1975 
Q 2488 2216 2034 2216 
z
M 1403 2484 
Q 997 2584 770 2862 
Q 544 3141 544 3541 
Q 544 4100 942 4425 
Q 1341 4750 2034 4750 
Q 2731 4750 3128 4425 
Q 3525 4100 3525 3541 
Q 3525 3141 3298 2862 
Q 3072 2584 2669 2484 
Q 3125 2378 3379 2068 
Q 3634 1759 3634 1313 
Q 3634 634 3220 271 
Q 2806 -91 2034 -91 
Q 1263 -91 848 271 
Q 434 634 434 1313 
Q 434 1759 690 2068 
Q 947 2378 1403 2484 
z
M 1172 3481 
Q 1172 3119 1398 2916 
Q 1625 2713 2034 2713 
Q 2441 2713 2670 2916 
Q 2900 3119 2900 3481 
Q 2900 3844 2670 4047 
Q 2441 4250 2034 4250 
Q 1625 4250 1398 4047 
Q 1172 3844 1172 3481 
z
" transform="scale(0.015625)"/>
       </defs>
       <use xlink:href="#DejaVuSans-30"/>
       <use xlink:href="#DejaVuSans-2e" x="63.623047"/>
       <use xlink:href="#DejaVuSans-38" x="95.410156"/>
      </g>
     </g>
    </g>
    <g id="text_5">
     <!-- Score cut -->
     <g transform="translate(261.032734 389.385331) scale(0.25 -0.25)">
      <defs>
       <path id="DejaVuSans-53" d="M 3425 4513 
L 3425 3897 
Q 3066 4069 2747 4153 
Q 2428 4238 2131 4238 
Q 1616 4238 1336 4038 
Q 1056 3838 1056 3469 
Q 1056 3159 1242 3001 
Q 1428 2844 1947 2747 
L 2328 2669 
Q 3034 2534 3370 2195 
Q 3706 1856 3706 1288 
Q 3706 609 3251 259 
Q 2797 -91 1919 -91 
Q 1588 -91 1214 -16 
Q 841 59 441 206 
L 441 856 
Q 825 641 1194 531 
Q 1563 422 1919 422 
Q 2459 422 2753 634 
Q 3047 847 3047 1241 
Q 3047 1584 2836 1778 
Q 2625 1972 2144 2069 
L 1759 2144 
Q 1053 2284 737 2584 
Q 422 2884 422 3419 
Q 422 4038 858 4394 
Q 1294 4750 2059 4750 
Q 2388 4750 2728 4690 
Q 3069 4631 3425 4513 
z
" transform="scale(0.015625)"/>
       <path id="DejaVuSans-63" d="M 3122 3366 
L 3122 2828 
Q 2878 2963 2633 3030 
Q 2388 3097 2138 3097 
Q 1578 3097 1268 2742 
Q 959 2388 959 1747 
Q 959 1106 1268 751 
Q 1578 397 2138 397 
Q 2388 397 2633 464 
Q 2878 531 3122 666 
L 3122 134 
Q 2881 22 2623 -34 
Q 2366 -91 2075 -91 
Q 1284 -91 818 406 
Q 353 903 353 1747 
Q 353 2603 823 3093 
Q 1294 3584 2113 3584 
Q 2378 3584 2631 3529 
Q 2884 3475 3122 3366 
z
" transform="scale(0.015625)"/>
       <path id="DejaVuSans-6f" d="M 1959 3097 
Q 1497 3097 1228 2736 
Q 959 2375 959 1747 
Q 959 1119 1226 758 
Q 1494 397 1959 397 
Q 2419 397 2687 759 
Q 2956 1122 2956 1747 
Q 2956 2369 2687 2733 
Q 2419 3097 1959 3097 
z
M 1959 3584 
Q 2709 3584 3137 3096 
Q 3566 2609 3566 1747 
Q 3566 888 3137 398 
Q 2709 -91 1959 -91 
Q 1206 -91 779 398 
Q 353 888 353 1747 
Q 353 2609 779 3096 
Q 1206 3584 1959 3584 
z
" transform="scale(0.015625)"/>
       <path id="DejaVuSans-72" d="M 2631 2963 
Q 2534 3019 2420 3045 
Q 2306 3072 2169 3072 
Q 1681 3072 1420 2755 
Q 1159 2438 1159 1844 
L 1159 0 
L 581 0 
L 581 3500 
L 1159 3500 
L 1159 2956 
Q 1341 3275 1631 3429 
Q 1922 3584 2338 3584 
Q 2397 3584 2469 3576 
Q 2541 3569 2628 3553 
L 2631 2963 
z
" transform="scale(0.015625)"/>
       <path id="DejaVuSans-65" d="M 3597 1894 
L 3597 1613 
L 953 1613 
Q 991 1019 1311 708 
Q 1631 397 2203 397 
Q 2534 397 2845 478 
Q 3156 559 3463 722 
L 3463 178 
Q 3153 47 2828 -22 
Q 2503 -91 2169 -91 
Q 1331 -91 842 396 
Q 353 884 353 1716 
Q 353 2575 817 3079 
Q 1281 3584 2069 3584 
Q 2775 3584 3186 3129 
Q 3597 2675 3597 1894 
z
M 3022 2063 
Q 3016 2534 2758 2815 
Q 2500 3097 2075 3097 
Q 1594 3097 1305 2825 
Q 1016 2553 972 2059 
L 3022 2063 
z
" transform="scale(0.015625)"/>
       <path id="DejaVuSans-20" transform="scale(0.015625)"/>
       <path id="DejaVuSans-75" d="M 544 1381 
L 544 3500 
L 1119 3500 
L 1119 1403 
Q 1119 906 1312 657 
Q 1506 409 1894 409 
Q 2359 409 2629 706 
Q 2900 1003 2900 1516 
L 2900 3500 
L 3475 3500 
L 3475 0 
L 2900 0 
L 2900 538 
Q 2691 219 2414 64 
Q 2138 -91 1772 -91 
Q 1169 -91 856 284 
Q 544 659 544 1381 
z
M 1991 3584 
L 1991 3584 
z
" transform="scale(0.015625)"/>
       <path id="DejaVuSans-74" d="M 1172 4494 
L 1172 3500 
L 2356 3500 
L 2356 3053 
L 1172 3053 
L 1172 1153 
Q 1172 725 1289 603 
Q 1406 481 1766 481 
L 2356 481 
L 2356 0 
L 1766 0 
Q 1100 0 847 248 
Q 594 497 594 1153 
L 594 3053 
L 172 3053 
L 172 3500 
L 594 3500 
L 594 4494 
L 1172 4494 
z
" transform="scale(0.015625)"/>
      </defs>
      <use xlink:href="#DejaVuSans-53"/>
      <use xlink:href="#DejaVuSans-63" x="63.476562"/>
      <use xlink:href="#DejaVuSans-6f" x="118.457031"/>
      <use xlink:href="#DejaVuSans-72" x="179.638672"/>
      <use xlink:href="#DejaVuSans-65" x="218.501953"/>
      <use xlink:href="#DejaVuSans-20" x="280.025391"/>
      <use xlink:href="#DejaVuSans-63" x="311.8125"/>
      <use xlink:href="#DejaVuSans-75" x="366.792969"/>
      <use xlink:href="#DejaVuSans-74" x="430.171875"/>
     </g>
    </g>
   </g>
   <g id="matplotlib.axis_2">
    <g id="ytick_1">
     <g id="line2d_9">
      <path d="M 83.426563 337.73902 
L 555.986562 337.73902 
" clip-path="url(#p6c8675ff9e)" style="fill: none; stroke: #808080; stroke-opacity: 0.5; stroke-width: 0.8; stroke-linecap: square"/>
     </g>
     <g id="line2d_10">
      <defs>
       <path id="m356211fc6e" d="M 0 0 
L 3.5 0 
" style="stroke: #000000; stroke-width: 0.8"/>
      </defs>
      <g>
       <use xlink:href="#m356211fc6e" x="83.426563" y="337.73902" style="stroke: #000000; stroke-width: 0.8"/>
      </g>
     </g>
     <g id="text_6">
      <!-- 0.65 -->
      <g transform="translate(35.395313 345.337457) scale(0.2 -0.2)">
       <defs>
        <path id="DejaVuSans-35" d="M 691 4666 
L 3169 4666 
L 3169 4134 
L 1269 4134 
L 1269 2991 
Q 1406 3038 1543 3061 
Q 1681 3084 1819 3084 
Q 2600 3084 3056 2656 
Q 3513 2228 3513 1497 
Q 3513 744 3044 326 
Q 2575 -91 1722 -91 
Q 1428 -91 1123 -41 
Q 819 9 494 109 
L 494 744 
Q 775 591 1075 516 
Q 1375 441 1709 441 
Q 2250 441 2565 725 
Q 2881 1009 2881 1497 
Q 2881 1984 2565 2268 
Q 2250 2553 1709 2553 
Q 1456 2553 1204 2497 
Q 953 2441 691 2322 
L 691 4666 
z
" transform="scale(0.015625)"/>
       </defs>
       <use xlink:href="#DejaVuSans-30"/>
       <use xlink:href="#DejaVuSans-2e" x="63.623047"/>
       <use xlink:href="#DejaVuSans-36" x="95.410156"/>
       <use xlink:href="#DejaVuSans-35" x="159.033203"/>
      </g>
     </g>
    </g>
    <g id="ytick_2">
     <g id="line2d_11">
      <path d="M 83.426563 292.882496 
L 555.986562 292.882496 
" clip-path="url(#p6c8675ff9e)" style="fill: none; stroke: #808080; stroke-opacity: 0.5; stroke-width: 0.8; stroke-linecap: square"/>
     </g>
     <g id="line2d_12">
      <g>
       <use xlink:href="#m356211fc6e" x="83.426563" y="292.882496" style="stroke: #000000; stroke-width: 0.8"/>
      </g>
     </g>
     <g id="text_7">
      <!-- 0.70 -->
      <g transform="translate(35.395313 300.480934) scale(0.2 -0.2)">
       <defs>
        <path id="DejaVuSans-37" d="M 525 4666 
L 3525 4666 
L 3525 4397 
L 1831 0 
L 1172 0 
L 2766 4134 
L 525 4134 
L 525 4666 
z
" transform="scale(0.015625)"/>
       </defs>
       <use xlink:href="#DejaVuSans-30"/>
       <use xlink:href="#DejaVuSans-2e" x="63.623047"/>
       <use xlink:href="#DejaVuSans-37" x="95.410156"/>
       <use xlink:href="#DejaVuSans-30" x="159.033203"/>
      </g>
     </g>
    </g>
    <g id="ytick_3">
     <g id="line2d_13">
      <path d="M 83.426563 248.025972 
L 555.986562 248.025972 
" clip-path="url(#p6c8675ff9e)" style="fill: none; stroke: #808080; stroke-opacity: 0.5; stroke-width: 0.8; stroke-linecap: square"/>
     </g>
     <g id="line2d_14">
      <g>
       <use xlink:href="#m356211fc6e" x="83.426563" y="248.025972" style="stroke: #000000; stroke-width: 0.8"/>
      </g>
     </g>
     <g id="text_8">
      <!-- 0.75 -->
      <g transform="translate(35.395313 255.62441) scale(0.2 -0.2)">
       <use xlink:href="#DejaVuSans-30"/>
       <use xlink:href="#DejaVuSans-2e" x="63.623047"/>
       <use xlink:href="#DejaVuSans-37" x="95.410156"/>
       <use xlink:href="#DejaVuSans-35" x="159.033203"/>
      </g>
     </g>
    </g>
    <g id="ytick_4">
     <g id="line2d_15">
      <path d="M 83.426563 203.169449 
L 555.986562 203.169449 
" clip-path="url(#p6c8675ff9e)" style="fill: none; stroke: #808080; stroke-opacity: 0.5; stroke-width: 0.8; stroke-linecap: square"/>
     </g>
     <g id="line2d_16">
      <g>
       <use xlink:href="#m356211fc6e" x="83.426563" y="203.169449" style="stroke: #000000; stroke-width: 0.8"/>
      </g>
     </g>
     <g id="text_9">
      <!-- 0.80 -->
      <g transform="translate(35.395313 210.767886) scale(0.2 -0.2)">
       <use xlink:href="#DejaVuSans-30"/>
       <use xlink:href="#DejaVuSans-2e" x="63.623047"/>
       <use xlink:href="#DejaVuSans-38" x="95.410156"/>
       <use xlink:href="#DejaVuSans-30" x="159.033203"/>
      </g>
     </g>
    </g>
    <g id="ytick_5">
     <g id="line2d_17">
      <path d="M 83.426563 158.312925 
L 555.986562 158.312925 
" clip-path="url(#p6c8675ff9e)" style="fill: none; stroke: #808080; stroke-opacity: 0.5; stroke-width: 0.8; stroke-linecap: square"/>
     </g>
     <g id="line2d_18">
      <g>
       <use xlink:href="#m356211fc6e" x="83.426563" y="158.312925" style="stroke: #000000; stroke-width: 0.8"/>
      </g>
     </g>
     <g id="text_10">
      <!-- 0.85 -->
      <g transform="translate(35.395313 165.911362) scale(0.2 -0.2)">
       <use xlink:href="#DejaVuSans-30"/>
       <use xlink:href="#DejaVuSans-2e" x="63.623047"/>
       <use xlink:href="#DejaVuSans-38" x="95.410156"/>
       <use xlink:href="#DejaVuSans-35" x="159.033203"/>
      </g>
     </g>
    </g>
    <g id="ytick_6">
     <g id="line2d_19">
      <path d="M 83.426563 113.456401 
L 555.986562 113.456401 
" clip-path="url(#p6c8675ff9e)" style="fill: none; stroke: #808080; stroke-opacity: 0.5; stroke-width: 0.8; stroke-linecap: square"/>
     </g>
     <g id="line2d_20">
      <g>
       <use xlink:href="#m356211fc6e" x="83.426563" y="113.456401" style="stroke: #000000; stroke-width: 0.8"/>
      </g>
     </g>
     <g id="text_11">
      <!-- 0.90 -->
      <g transform="translate(35.395313 121.054839) scale(0.2 -0.2)">
       <defs>
        <path id="DejaVuSans-39" d="M 703 97 
L 703 672 
Q 941 559 1184 500 
Q 1428 441 1663 441 
Q 2288 441 2617 861 
Q 2947 1281 2994 2138 
Q 2813 1869 2534 1725 
Q 2256 1581 1919 1581 
Q 1219 1581 811 2004 
Q 403 2428 403 3163 
Q 403 3881 828 4315 
Q 1253 4750 1959 4750 
Q 2769 4750 3195 4129 
Q 3622 3509 3622 2328 
Q 3622 1225 3098 567 
Q 2575 -91 1691 -91 
Q 1453 -91 1209 -44 
Q 966 3 703 97 
z
M 1959 2075 
Q 2384 2075 2632 2365 
Q 2881 2656 2881 3163 
Q 2881 3666 2632 3958 
Q 2384 4250 1959 4250 
Q 1534 4250 1286 3958 
Q 1038 3666 1038 3163 
Q 1038 2656 1286 2365 
Q 1534 2075 1959 2075 
z
" transform="scale(0.015625)"/>
       </defs>
       <use xlink:href="#DejaVuSans-30"/>
       <use xlink:href="#DejaVuSans-2e" x="63.623047"/>
       <use xlink:href="#DejaVuSans-39" x="95.410156"/>
       <use xlink:href="#DejaVuSans-30" x="159.033203"/>
      </g>
     </g>
    </g>
    <g id="ytick_7">
     <g id="line2d_21">
      <path d="M 83.426563 68.599878 
L 555.986562 68.599878 
" clip-path="url(#p6c8675ff9e)" style="fill: none; stroke: #808080; stroke-opacity: 0.5; stroke-width: 0.8; stroke-linecap: square"/>
     </g>
     <g id="line2d_22">
      <g>
       <use xlink:href="#m356211fc6e" x="83.426563" y="68.599878" style="stroke: #000000; stroke-width: 0.8"/>
      </g>
     </g>
     <g id="text_12">
      <!-- 0.95 -->
      <g transform="translate(35.395313 76.198315) scale(0.2 -0.2)">
       <use xlink:href="#DejaVuSans-30"/>
       <use xlink:href="#DejaVuSans-2e" x="63.623047"/>
       <use xlink:href="#DejaVuSans-39" x="95.410156"/>
       <use xlink:href="#DejaVuSans-35" x="159.033203"/>
      </g>
     </g>
    </g>
    <g id="ytick_8">
     <g id="line2d_23">
      <path d="M 83.426563 23.743354 
L 555.986562 23.743354 
" clip-path="url(#p6c8675ff9e)" style="fill: none; stroke: #808080; stroke-opacity: 0.5; stroke-width: 0.8; stroke-linecap: square"/>
     </g>
     <g id="line2d_24">
      <g>
       <use xlink:href="#m356211fc6e" x="83.426563" y="23.743354" style="stroke: #000000; stroke-width: 0.8"/>
      </g>
     </g>
     <g id="text_13">
      <!-- 1.00 -->
      <g transform="translate(35.395313 31.341791) scale(0.2 -0.2)">
       <defs>
        <path id="DejaVuSans-31" d="M 794 531 
L 1825 531 
L 1825 4091 
L 703 3866 
L 703 4441 
L 1819 4666 
L 2450 4666 
L 2450 531 
L 3481 531 
L 3481 0 
L 794 0 
L 794 531 
z
" transform="scale(0.015625)"/>
       </defs>
       <use xlink:href="#DejaVuSans-31"/>
       <use xlink:href="#DejaVuSans-2e" x="63.623047"/>
       <use xlink:href="#DejaVuSans-30" x="95.410156"/>
       <use xlink:href="#DejaVuSans-30" x="159.033203"/>
      </g>
     </g>
    </g>
    <g id="text_14">
     <!-- Efficiency -->
     <g transform="translate(26.196094 237.405487) rotate(-90) scale(0.25 -0.25)">
      <defs>
       <path id="DejaVuSans-45" d="M 628 4666 
L 3578 4666 
L 3578 4134 
L 1259 4134 
L 1259 2753 
L 3481 2753 
L 3481 2222 
L 1259 2222 
L 1259 531 
L 3634 531 
L 3634 0 
L 628 0 
L 628 4666 
z
" transform="scale(0.015625)"/>
       <path id="DejaVuSans-66" d="M 2375 4863 
L 2375 4384 
L 1825 4384 
Q 1516 4384 1395 4259 
Q 1275 4134 1275 3809 
L 1275 3500 
L 2222 3500 
L 2222 3053 
L 1275 3053 
L 1275 0 
L 697 0 
L 697 3053 
L 147 3053 
L 147 3500 
L 697 3500 
L 697 3744 
Q 697 4328 969 4595 
Q 1241 4863 1831 4863 
L 2375 4863 
z
" transform="scale(0.015625)"/>
       <path id="DejaVuSans-69" d="M 603 3500 
L 1178 3500 
L 1178 0 
L 603 0 
L 603 3500 
z
M 603 4863 
L 1178 4863 
L 1178 4134 
L 603 4134 
L 603 4863 
z
" transform="scale(0.015625)"/>
       <path id="DejaVuSans-6e" d="M 3513 2113 
L 3513 0 
L 2938 0 
L 2938 2094 
Q 2938 2591 2744 2837 
Q 2550 3084 2163 3084 
Q 1697 3084 1428 2787 
Q 1159 2491 1159 1978 
L 1159 0 
L 581 0 
L 581 3500 
L 1159 3500 
L 1159 2956 
Q 1366 3272 1645 3428 
Q 1925 3584 2291 3584 
Q 2894 3584 3203 3211 
Q 3513 2838 3513 2113 
z
" transform="scale(0.015625)"/>
       <path id="DejaVuSans-79" d="M 2059 -325 
Q 1816 -950 1584 -1140 
Q 1353 -1331 966 -1331 
L 506 -1331 
L 506 -850 
L 844 -850 
Q 1081 -850 1212 -737 
Q 1344 -625 1503 -206 
L 1606 56 
L 191 3500 
L 800 3500 
L 1894 763 
L 2988 3500 
L 3597 3500 
L 2059 -325 
z
" transform="scale(0.015625)"/>
      </defs>
      <use xlink:href="#DejaVuSans-45"/>
      <use xlink:href="#DejaVuSans-66" x="63.183594"/>
      <use xlink:href="#DejaVuSans-66" x="98.388672"/>
      <use xlink:href="#DejaVuSans-69" x="133.59375"/>
      <use xlink:href="#DejaVuSans-63" x="161.376953"/>
      <use xlink:href="#DejaVuSans-69" x="216.357422"/>
      <use xlink:href="#DejaVuSans-65" x="244.140625"/>
      <use xlink:href="#DejaVuSans-6e" x="305.664062"/>
      <use xlink:href="#DejaVuSans-63" x="369.042969"/>
      <use xlink:href="#DejaVuSans-79" x="424.023438"/>
     </g>
    </g>
   </g>
   <g id="line2d_25">
    <path d="M 104.906562 39.091832 
L 158.606562 36.785584 
L 169.346562 36.308429 
L 180.086562 36.149378 
L 190.826562 36.069852 
L 201.566562 36.069852 
L 212.306562 36.149378 
L 223.046562 36.387955 
L 233.786562 36.706058 
L 244.526562 36.86511 
L 255.266562 37.501316 
L 266.006562 37.660368 
L 319.706562 40.761874 
L 427.106562 50.861649 
L 534.506562 98.815703 
" clip-path="url(#p6c8675ff9e)" style="fill: none; stroke: #1f77b4; stroke-width: 1.5; stroke-linecap: square"/>
    <defs>
     <path id="m6002b61833" d="M 0 1.5 
C 0.397805 1.5 0.77937 1.341951 1.06066 1.06066 
C 1.341951 0.77937 1.5 0.397805 1.5 0 
C 1.5 -0.397805 1.341951 -0.77937 1.06066 -1.06066 
C 0.77937 -1.341951 0.397805 -1.5 0 -1.5 
C -0.397805 -1.5 -0.77937 -1.341951 -1.06066 -1.06066 
C -1.341951 -0.77937 -1.5 -0.397805 -1.5 0 
C -1.5 0.397805 -1.341951 0.77937 -1.06066 1.06066 
C -0.77937 1.341951 -0.397805 1.5 0 1.5 
z
" style="stroke: #1f77b4"/>
    </defs>
    <g clip-path="url(#p6c8675ff9e)">
     <use xlink:href="#m6002b61833" x="104.906562" y="39.091832" style="fill: #1f77b4; stroke: #1f77b4"/>
     <use xlink:href="#m6002b61833" x="158.606562" y="36.785584" style="fill: #1f77b4; stroke: #1f77b4"/>
     <use xlink:href="#m6002b61833" x="169.346562" y="36.308429" style="fill: #1f77b4; stroke: #1f77b4"/>
     <use xlink:href="#m6002b61833" x="180.086562" y="36.149378" style="fill: #1f77b4; stroke: #1f77b4"/>
     <use xlink:href="#m6002b61833" x="190.826562" y="36.069852" style="fill: #1f77b4; stroke: #1f77b4"/>
     <use xlink:href="#m6002b61833" x="201.566562" y="36.069852" style="fill: #1f77b4; stroke: #1f77b4"/>
     <use xlink:href="#m6002b61833" x="212.306562" y="36.149378" style="fill: #1f77b4; stroke: #1f77b4"/>
     <use xlink:href="#m6002b61833" x="223.046562" y="36.387955" style="fill: #1f77b4; stroke: #1f77b4"/>
     <use xlink:href="#m6002b61833" x="233.786562" y="36.706058" style="fill: #1f77b4; stroke: #1f77b4"/>
     <use xlink:href="#m6002b61833" x="244.526562" y="36.86511" style="fill: #1f77b4; stroke: #1f77b4"/>
     <use xlink:href="#m6002b61833" x="255.266562" y="37.501316" style="fill: #1f77b4; stroke: #1f77b4"/>
     <use xlink:href="#m6002b61833" x="266.006562" y="37.660368" style="fill: #1f77b4; stroke: #1f77b4"/>
     <use xlink:href="#m6002b61833" x="319.706562" y="40.761874" style="fill: #1f77b4; stroke: #1f77b4"/>
     <use xlink:href="#m6002b61833" x="427.106562" y="50.861649" style="fill: #1f77b4; stroke: #1f77b4"/>
     <use xlink:href="#m6002b61833" x="534.506562" y="98.815703" style="fill: #1f77b4; stroke: #1f77b4"/>
    </g>
   </g>
   <g id="line2d_26">
    <path d="M 104.906562 27.481398 
L 158.606562 25.612376 
L 169.346562 27.481398 
L 180.086562 31.219441 
L 190.826562 31.219441 
L 201.566562 31.219441 
L 212.306562 33.088463 
L 223.046562 36.826507 
L 233.786562 38.695528 
L 244.526562 46.171616 
L 255.266562 49.909659 
L 266.006562 49.909659 
L 319.706562 61.12379 
L 427.106562 135.884663 
L 534.506562 328.393911 
" clip-path="url(#p6c8675ff9e)" style="fill: none; stroke: #ff7f0e; stroke-width: 1.5; stroke-linecap: square"/>
    <defs>
     <path id="m011bcec02e" d="M 0 1.5 
C 0.397805 1.5 0.77937 1.341951 1.06066 1.06066 
C 1.341951 0.77937 1.5 0.397805 1.5 0 
C 1.5 -0.397805 1.341951 -0.77937 1.06066 -1.06066 
C 0.77937 -1.341951 0.397805 -1.5 0 -1.5 
C -0.397805 -1.5 -0.77937 -1.341951 -1.06066 -1.06066 
C -1.341951 -0.77937 -1.5 -0.397805 -1.5 0 
C -1.5 0.397805 -1.341951 0.77937 -1.06066 1.06066 
C -0.77937 1.341951 -0.397805 1.5 0 1.5 
z
" style="stroke: #ff7f0e"/>
    </defs>
    <g clip-path="url(#p6c8675ff9e)">
     <use xlink:href="#m011bcec02e" x="104.906562" y="27.481398" style="fill: #ff7f0e; stroke: #ff7f0e"/>
     <use xlink:href="#m011bcec02e" x="158.606562" y="25.612376" style="fill: #ff7f0e; stroke: #ff7f0e"/>
     <use xlink:href="#m011bcec02e" x="169.346562" y="27.481398" style="fill: #ff7f0e; stroke: #ff7f0e"/>
     <use xlink:href="#m011bcec02e" x="180.086562" y="31.219441" style="fill: #ff7f0e; stroke: #ff7f0e"/>
     <use xlink:href="#m011bcec02e" x="190.826562" y="31.219441" style="fill: #ff7f0e; stroke: #ff7f0e"/>
     <use xlink:href="#m011bcec02e" x="201.566562" y="31.219441" style="fill: #ff7f0e; stroke: #ff7f0e"/>
     <use xlink:href="#m011bcec02e" x="212.306562" y="33.088463" style="fill: #ff7f0e; stroke: #ff7f0e"/>
     <use xlink:href="#m011bcec02e" x="223.046562" y="36.826507" style="fill: #ff7f0e; stroke: #ff7f0e"/>
     <use xlink:href="#m011bcec02e" x="233.786562" y="38.695528" style="fill: #ff7f0e; stroke: #ff7f0e"/>
     <use xlink:href="#m011bcec02e" x="244.526562" y="46.171616" style="fill: #ff7f0e; stroke: #ff7f0e"/>
     <use xlink:href="#m011bcec02e" x="255.266562" y="49.909659" style="fill: #ff7f0e; stroke: #ff7f0e"/>
     <use xlink:href="#m011bcec02e" x="266.006562" y="49.909659" style="fill: #ff7f0e; stroke: #ff7f0e"/>
     <use xlink:href="#m011bcec02e" x="319.706562" y="61.12379" style="fill: #ff7f0e; stroke: #ff7f0e"/>
     <use xlink:href="#m011bcec02e" x="427.106562" y="135.884663" style="fill: #ff7f0e; stroke: #ff7f0e"/>
     <use xlink:href="#m011bcec02e" x="534.506562" y="328.393911" style="fill: #ff7f0e; stroke: #ff7f0e"/>
    </g>
   </g>
   <g id="line2d_27">
    <path d="M 104.906562 61.732592 
L 158.606562 55.888094 
L 169.346562 52.965845 
L 180.086562 52.965845 
L 190.826562 55.888094 
L 201.566562 52.965845 
L 212.306562 55.888094 
L 223.046562 52.965845 
L 233.786562 55.888094 
L 244.526562 50.043596 
L 255.266562 52.965845 
L 266.006562 52.965845 
L 319.706562 61.732592 
L 427.106562 85.110585 
L 534.506562 219.534044 
" clip-path="url(#p6c8675ff9e)" style="fill: none; stroke: #2ca02c; stroke-width: 1.5; stroke-linecap: square"/>
    <defs>
     <path id="mec9df6b165" d="M 0 1.5 
C 0.397805 1.5 0.77937 1.341951 1.06066 1.06066 
C 1.341951 0.77937 1.5 0.397805 1.5 0 
C 1.5 -0.397805 1.341951 -0.77937 1.06066 -1.06066 
C 0.77937 -1.341951 0.397805 -1.5 0 -1.5 
C -0.397805 -1.5 -0.77937 -1.341951 -1.06066 -1.06066 
C -1.341951 -0.77937 -1.5 -0.397805 -1.5 0 
C -1.5 0.397805 -1.341951 0.77937 -1.06066 1.06066 
C -0.77937 1.341951 -0.397805 1.5 0 1.5 
z
" style="stroke: #2ca02c"/>
    </defs>
    <g clip-path="url(#p6c8675ff9e)">
     <use xlink:href="#mec9df6b165" x="104.906562" y="61.732592" style="fill: #2ca02c; stroke: #2ca02c"/>
     <use xlink:href="#mec9df6b165" x="158.606562" y="55.888094" style="fill: #2ca02c; stroke: #2ca02c"/>
     <use xlink:href="#mec9df6b165" x="169.346562" y="52.965845" style="fill: #2ca02c; stroke: #2ca02c"/>
     <use xlink:href="#mec9df6b165" x="180.086562" y="52.965845" style="fill: #2ca02c; stroke: #2ca02c"/>
     <use xlink:href="#mec9df6b165" x="190.826562" y="55.888094" style="fill: #2ca02c; stroke: #2ca02c"/>
     <use xlink:href="#mec9df6b165" x="201.566562" y="52.965845" style="fill: #2ca02c; stroke: #2ca02c"/>
     <use xlink:href="#mec9df6b165" x="212.306562" y="55.888094" style="fill: #2ca02c; stroke: #2ca02c"/>
     <use xlink:href="#mec9df6b165" x="223.046562" y="52.965845" style="fill: #2ca02c; stroke: #2ca02c"/>
     <use xlink:href="#mec9df6b165" x="233.786562" y="55.888094" style="fill: #2ca02c; stroke: #2ca02c"/>
     <use xlink:href="#mec9df6b165" x="244.526562" y="50.043596" style="fill: #2ca02c; stroke: #2ca02c"/>
     <use xlink:href="#mec9df6b165" x="255.266562" y="52.965845" style="fill: #2ca02c; stroke: #2ca02c"/>
     <use xlink:href="#mec9df6b165" x="266.006562" y="52.965845" style="fill: #2ca02c; stroke: #2ca02c"/>
     <use xlink:href="#mec9df6b165" x="319.706562" y="61.732592" style="fill: #2ca02c; stroke: #2ca02c"/>
     <use xlink:href="#mec9df6b165" x="427.106562" y="85.110585" style="fill: #2ca02c; stroke: #2ca02c"/>
     <use xlink:href="#mec9df6b165" x="534.506562" y="219.534044" style="fill: #2ca02c; stroke: #2ca02c"/>
    </g>
   </g>
   <g id="patch_3">
    <path d="M 83.426563 343.532987 
L 83.426563 10.473299 
" style="fill: none; stroke: #000000; stroke-width: 0.8; stroke-linejoin: miter; stroke-linecap: square"/>
   </g>
   <g id="patch_4">
    <path d="M 555.986562 343.532987 
L 555.986562 10.473299 
" style="fill: none; stroke: #000000; stroke-width: 0.8; stroke-linejoin: miter; stroke-linecap: square"/>
   </g>
   <g id="patch_5">
    <path d="M 83.426562 343.532987 
L 555.986562 343.532987 
" style="fill: none; stroke: #000000; stroke-width: 0.8; stroke-linejoin: miter; stroke-linecap: square"/>
   </g>
   <g id="patch_6">
    <path d="M 83.426562 10.473299 
L 555.986562 10.473299 
" style="fill: none; stroke: #000000; stroke-width: 0.8; stroke-linejoin: miter; stroke-linecap: square"/>
   </g>
   <g id="legend_1">
    <g id="patch_7">
     <path d="M 97.426563 333.532987 
L 363.314063 333.532987 
Q 367.314063 333.532987 367.314063 329.532987 
L 367.314063 243.464237 
Q 367.314063 239.464237 363.314063 239.464237 
L 97.426563 239.464237 
Q 93.426563 239.464237 93.426563 243.464237 
L 93.426563 329.532987 
Q 93.426563 333.532987 97.426563 333.532987 
z
" style="fill: #ffffff; opacity: 0.8; stroke: #cccccc; stroke-linejoin: miter"/>
    </g>
    <g id="line2d_28">
     <path d="M 101.426563 255.661112 
L 121.426563 255.661112 
L 141.426562 255.661112 
" style="fill: none; stroke: #1f77b4; stroke-width: 1.5; stroke-linecap: square"/>
     <g>
      <use xlink:href="#m6002b61833" x="121.426563" y="255.661112" style="fill: #1f77b4; stroke: #1f77b4"/>
     </g>
    </g>
    <g id="text_15">
     <!-- Velo, no electrons -->
     <g transform="translate(157.426562 262.661112) scale(0.2 -0.2)">
      <defs>
       <path id="DejaVuSans-56" d="M 1831 0 
L 50 4666 
L 709 4666 
L 2188 738 
L 3669 4666 
L 4325 4666 
L 2547 0 
L 1831 0 
z
" transform="scale(0.015625)"/>
       <path id="DejaVuSans-6c" d="M 603 4863 
L 1178 4863 
L 1178 0 
L 603 0 
L 603 4863 
z
" transform="scale(0.015625)"/>
       <path id="DejaVuSans-2c" d="M 750 794 
L 1409 794 
L 1409 256 
L 897 -744 
L 494 -744 
L 750 256 
L 750 794 
z
" transform="scale(0.015625)"/>
       <path id="DejaVuSans-73" d="M 2834 3397 
L 2834 2853 
Q 2591 2978 2328 3040 
Q 2066 3103 1784 3103 
Q 1356 3103 1142 2972 
Q 928 2841 928 2578 
Q 928 2378 1081 2264 
Q 1234 2150 1697 2047 
L 1894 2003 
Q 2506 1872 2764 1633 
Q 3022 1394 3022 966 
Q 3022 478 2636 193 
Q 2250 -91 1575 -91 
Q 1294 -91 989 -36 
Q 684 19 347 128 
L 347 722 
Q 666 556 975 473 
Q 1284 391 1588 391 
Q 1994 391 2212 530 
Q 2431 669 2431 922 
Q 2431 1156 2273 1281 
Q 2116 1406 1581 1522 
L 1381 1569 
Q 847 1681 609 1914 
Q 372 2147 372 2553 
Q 372 3047 722 3315 
Q 1072 3584 1716 3584 
Q 2034 3584 2315 3537 
Q 2597 3491 2834 3397 
z
" transform="scale(0.015625)"/>
      </defs>
      <use xlink:href="#DejaVuSans-56"/>
      <use xlink:href="#DejaVuSans-65" x="60.658203"/>
      <use xlink:href="#DejaVuSans-6c" x="122.181641"/>
      <use xlink:href="#DejaVuSans-6f" x="149.964844"/>
      <use xlink:href="#DejaVuSans-2c" x="211.146484"/>
      <use xlink:href="#DejaVuSans-20" x="242.933594"/>
      <use xlink:href="#DejaVuSans-6e" x="274.720703"/>
      <use xlink:href="#DejaVuSans-6f" x="338.099609"/>
      <use xlink:href="#DejaVuSans-20" x="399.28125"/>
      <use xlink:href="#DejaVuSans-65" x="431.068359"/>
      <use xlink:href="#DejaVuSans-6c" x="492.591797"/>
      <use xlink:href="#DejaVuSans-65" x="520.375"/>
      <use xlink:href="#DejaVuSans-63" x="581.898438"/>
      <use xlink:href="#DejaVuSans-74" x="636.878906"/>
      <use xlink:href="#DejaVuSans-72" x="676.087891"/>
      <use xlink:href="#DejaVuSans-6f" x="714.951172"/>
      <use xlink:href="#DejaVuSans-6e" x="776.132812"/>
      <use xlink:href="#DejaVuSans-73" x="839.511719"/>
     </g>
    </g>
    <g id="line2d_29">
     <path d="M 101.426563 285.017362 
L 121.426563 285.017362 
L 141.426562 285.017362 
" style="fill: none; stroke: #ff7f0e; stroke-width: 1.5; stroke-linecap: square"/>
     <g>
      <use xlink:href="#m011bcec02e" x="121.426563" y="285.017362" style="fill: #ff7f0e; stroke: #ff7f0e"/>
     </g>
    </g>
    <g id="text_16">
     <!-- Long, only electrons -->
     <g transform="translate(157.426562 292.017362) scale(0.2 -0.2)">
      <defs>
       <path id="DejaVuSans-4c" d="M 628 4666 
L 1259 4666 
L 1259 531 
L 3531 531 
L 3531 0 
L 628 0 
L 628 4666 
z
" transform="scale(0.015625)"/>
       <path id="DejaVuSans-67" d="M 2906 1791 
Q 2906 2416 2648 2759 
Q 2391 3103 1925 3103 
Q 1463 3103 1205 2759 
Q 947 2416 947 1791 
Q 947 1169 1205 825 
Q 1463 481 1925 481 
Q 2391 481 2648 825 
Q 2906 1169 2906 1791 
z
M 3481 434 
Q 3481 -459 3084 -895 
Q 2688 -1331 1869 -1331 
Q 1566 -1331 1297 -1286 
Q 1028 -1241 775 -1147 
L 775 -588 
Q 1028 -725 1275 -790 
Q 1522 -856 1778 -856 
Q 2344 -856 2625 -561 
Q 2906 -266 2906 331 
L 2906 616 
Q 2728 306 2450 153 
Q 2172 0 1784 0 
Q 1141 0 747 490 
Q 353 981 353 1791 
Q 353 2603 747 3093 
Q 1141 3584 1784 3584 
Q 2172 3584 2450 3431 
Q 2728 3278 2906 2969 
L 2906 3500 
L 3481 3500 
L 3481 434 
z
" transform="scale(0.015625)"/>
      </defs>
      <use xlink:href="#DejaVuSans-4c"/>
      <use xlink:href="#DejaVuSans-6f" x="53.962891"/>
      <use xlink:href="#DejaVuSans-6e" x="115.144531"/>
      <use xlink:href="#DejaVuSans-67" x="178.523438"/>
      <use xlink:href="#DejaVuSans-2c" x="242"/>
      <use xlink:href="#DejaVuSans-20" x="273.787109"/>
      <use xlink:href="#DejaVuSans-6f" x="305.574219"/>
      <use xlink:href="#DejaVuSans-6e" x="366.755859"/>
      <use xlink:href="#DejaVuSans-6c" x="430.134766"/>
      <use xlink:href="#DejaVuSans-79" x="457.917969"/>
      <use xlink:href="#DejaVuSans-20" x="517.097656"/>
      <use xlink:href="#DejaVuSans-65" x="548.884766"/>
      <use xlink:href="#DejaVuSans-6c" x="610.408203"/>
      <use xlink:href="#DejaVuSans-65" x="638.191406"/>
      <use xlink:href="#DejaVuSans-63" x="699.714844"/>
      <use xlink:href="#DejaVuSans-74" x="754.695312"/>
      <use xlink:href="#DejaVuSans-72" x="793.904297"/>
      <use xlink:href="#DejaVuSans-6f" x="832.767578"/>
      <use xlink:href="#DejaVuSans-6e" x="893.949219"/>
      <use xlink:href="#DejaVuSans-73" x="957.328125"/>
     </g>
    </g>
    <g id="line2d_30">
     <path d="M 101.426563 314.373612 
L 121.426563 314.373612 
L 141.426562 314.373612 
" style="fill: none; stroke: #2ca02c; stroke-width: 1.5; stroke-linecap: square"/>
     <g>
      <use xlink:href="#mec9df6b165" x="121.426563" y="314.373612" style="fill: #2ca02c; stroke: #2ca02c"/>
     </g>
    </g>
    <g id="text_17">
     <!-- Long, from strange -->
     <g transform="translate(157.426562 321.373612) scale(0.2 -0.2)">
      <defs>
       <path id="DejaVuSans-6d" d="M 3328 2828 
Q 3544 3216 3844 3400 
Q 4144 3584 4550 3584 
Q 5097 3584 5394 3201 
Q 5691 2819 5691 2113 
L 5691 0 
L 5113 0 
L 5113 2094 
Q 5113 2597 4934 2840 
Q 4756 3084 4391 3084 
Q 3944 3084 3684 2787 
Q 3425 2491 3425 1978 
L 3425 0 
L 2847 0 
L 2847 2094 
Q 2847 2600 2669 2842 
Q 2491 3084 2119 3084 
Q 1678 3084 1418 2786 
Q 1159 2488 1159 1978 
L 1159 0 
L 581 0 
L 581 3500 
L 1159 3500 
L 1159 2956 
Q 1356 3278 1631 3431 
Q 1906 3584 2284 3584 
Q 2666 3584 2933 3390 
Q 3200 3197 3328 2828 
z
" transform="scale(0.015625)"/>
       <path id="DejaVuSans-61" d="M 2194 1759 
Q 1497 1759 1228 1600 
Q 959 1441 959 1056 
Q 959 750 1161 570 
Q 1363 391 1709 391 
Q 2188 391 2477 730 
Q 2766 1069 2766 1631 
L 2766 1759 
L 2194 1759 
z
M 3341 1997 
L 3341 0 
L 2766 0 
L 2766 531 
Q 2569 213 2275 61 
Q 1981 -91 1556 -91 
Q 1019 -91 701 211 
Q 384 513 384 1019 
Q 384 1609 779 1909 
Q 1175 2209 1959 2209 
L 2766 2209 
L 2766 2266 
Q 2766 2663 2505 2880 
Q 2244 3097 1772 3097 
Q 1472 3097 1187 3025 
Q 903 2953 641 2809 
L 641 3341 
Q 956 3463 1253 3523 
Q 1550 3584 1831 3584 
Q 2591 3584 2966 3190 
Q 3341 2797 3341 1997 
z
" transform="scale(0.015625)"/>
      </defs>
      <use xlink:href="#DejaVuSans-4c"/>
      <use xlink:href="#DejaVuSans-6f" x="53.962891"/>
      <use xlink:href="#DejaVuSans-6e" x="115.144531"/>
      <use xlink:href="#DejaVuSans-67" x="178.523438"/>
      <use xlink:href="#DejaVuSans-2c" x="242"/>
      <use xlink:href="#DejaVuSans-20" x="273.787109"/>
      <use xlink:href="#DejaVuSans-66" x="305.574219"/>
      <use xlink:href="#DejaVuSans-72" x="340.779297"/>
      <use xlink:href="#DejaVuSans-6f" x="379.642578"/>
      <use xlink:href="#DejaVuSans-6d" x="440.824219"/>
      <use xlink:href="#DejaVuSans-20" x="538.236328"/>
      <use xlink:href="#DejaVuSans-73" x="570.023438"/>
      <use xlink:href="#DejaVuSans-74" x="622.123047"/>
      <use xlink:href="#DejaVuSans-72" x="661.332031"/>
      <use xlink:href="#DejaVuSans-61" x="702.445312"/>
      <use xlink:href="#DejaVuSans-6e" x="763.724609"/>
      <use xlink:href="#DejaVuSans-67" x="827.103516"/>
      <use xlink:href="#DejaVuSans-65" x="890.580078"/>
     </g>
    </g>
   </g>
  </g>
  <g id="axes_2">
   <g id="patch_8">
    <path d="M 654.026563 343.532987 
L 1126.586563 343.532987 
L 1126.586563 10.473299 
L 654.026563 10.473299 
z
" style="fill: #ffffff"/>
   </g>
   <g id="matplotlib.axis_3">
    <g id="xtick_5">
     <g id="line2d_31">
      <path d="M 729.206563 343.532987 
L 729.206563 10.473299 
" clip-path="url(#pe0dd937b29)" style="fill: none; stroke: #808080; stroke-opacity: 0.5; stroke-width: 0.8; stroke-linecap: square"/>
     </g>
     <g id="line2d_32">
      <g>
       <use xlink:href="#m0014144dd7" x="729.206563" y="343.532987" style="stroke: #000000; stroke-width: 0.8"/>
      </g>
     </g>
     <g id="text_18">
      <!-- 0.2 -->
      <g transform="translate(713.303437 362.229862) scale(0.2 -0.2)">
       <use xlink:href="#DejaVuSans-30"/>
       <use xlink:href="#DejaVuSans-2e" x="63.623047"/>
       <use xlink:href="#DejaVuSans-32" x="95.410156"/>
      </g>
     </g>
    </g>
    <g id="xtick_6">
     <g id="line2d_33">
      <path d="M 836.606563 343.532987 
L 836.606563 10.473299 
" clip-path="url(#pe0dd937b29)" style="fill: none; stroke: #808080; stroke-opacity: 0.5; stroke-width: 0.8; stroke-linecap: square"/>
     </g>
     <g id="line2d_34">
      <g>
       <use xlink:href="#m0014144dd7" x="836.606563" y="343.532987" style="stroke: #000000; stroke-width: 0.8"/>
      </g>
     </g>
     <g id="text_19">
      <!-- 0.4 -->
      <g transform="translate(820.703438 362.229862) scale(0.2 -0.2)">
       <use xlink:href="#DejaVuSans-30"/>
       <use xlink:href="#DejaVuSans-2e" x="63.623047"/>
       <use xlink:href="#DejaVuSans-34" x="95.410156"/>
      </g>
     </g>
    </g>
    <g id="xtick_7">
     <g id="line2d_35">
      <path d="M 944.006563 343.532987 
L 944.006563 10.473299 
" clip-path="url(#pe0dd937b29)" style="fill: none; stroke: #808080; stroke-opacity: 0.5; stroke-width: 0.8; stroke-linecap: square"/>
     </g>
     <g id="line2d_36">
      <g>
       <use xlink:href="#m0014144dd7" x="944.006563" y="343.532987" style="stroke: #000000; stroke-width: 0.8"/>
      </g>
     </g>
     <g id="text_20">
      <!-- 0.6 -->
      <g transform="translate(928.103438 362.229862) scale(0.2 -0.2)">
       <use xlink:href="#DejaVuSans-30"/>
       <use xlink:href="#DejaVuSans-2e" x="63.623047"/>
       <use xlink:href="#DejaVuSans-36" x="95.410156"/>
      </g>
     </g>
    </g>
    <g id="xtick_8">
     <g id="line2d_37">
      <path d="M 1051.406563 343.532987 
L 1051.406563 10.473299 
" clip-path="url(#pe0dd937b29)" style="fill: none; stroke: #808080; stroke-opacity: 0.5; stroke-width: 0.8; stroke-linecap: square"/>
     </g>
     <g id="line2d_38">
      <g>
       <use xlink:href="#m0014144dd7" x="1051.406563" y="343.532987" style="stroke: #000000; stroke-width: 0.8"/>
      </g>
     </g>
     <g id="text_21">
      <!-- 0.8 -->
      <g transform="translate(1035.503438 362.229862) scale(0.2 -0.2)">
       <use xlink:href="#DejaVuSans-30"/>
       <use xlink:href="#DejaVuSans-2e" x="63.623047"/>
       <use xlink:href="#DejaVuSans-38" x="95.410156"/>
      </g>
     </g>
    </g>
    <g id="text_22">
     <!-- Score cut -->
     <g transform="translate(831.632734 389.385331) scale(0.25 -0.25)">
      <use xlink:href="#DejaVuSans-53"/>
      <use xlink:href="#DejaVuSans-63" x="63.476562"/>
      <use xlink:href="#DejaVuSans-6f" x="118.457031"/>
      <use xlink:href="#DejaVuSans-72" x="179.638672"/>
      <use xlink:href="#DejaVuSans-65" x="218.501953"/>
      <use xlink:href="#DejaVuSans-20" x="280.025391"/>
      <use xlink:href="#DejaVuSans-63" x="311.8125"/>
      <use xlink:href="#DejaVuSans-75" x="366.792969"/>
      <use xlink:href="#DejaVuSans-74" x="430.171875"/>
     </g>
    </g>
   </g>
   <g id="matplotlib.axis_4">
    <g id="ytick_9">
     <g id="line2d_39">
      <path d="M 654.026563 339.17313 
L 1126.586563 339.17313 
" clip-path="url(#pe0dd937b29)" style="fill: none; stroke: #808080; stroke-opacity: 0.5; stroke-width: 0.8; stroke-linecap: square"/>
     </g>
     <g id="line2d_40">
      <g>
       <use xlink:href="#m356211fc6e" x="654.026563" y="339.17313" style="stroke: #000000; stroke-width: 0.8"/>
      </g>
     </g>
     <g id="text_23">
      <!-- 0.00 -->
      <g transform="translate(605.995313 346.771567) scale(0.2 -0.2)">
       <use xlink:href="#DejaVuSans-30"/>
       <use xlink:href="#DejaVuSans-2e" x="63.623047"/>
       <use xlink:href="#DejaVuSans-30" x="95.410156"/>
       <use xlink:href="#DejaVuSans-30" x="159.033203"/>
      </g>
     </g>
    </g>
    <g id="ytick_10">
     <g id="line2d_41">
      <path d="M 654.026563 258.328987 
L 1126.586563 258.328987 
" clip-path="url(#pe0dd937b29)" style="fill: none; stroke: #808080; stroke-opacity: 0.5; stroke-width: 0.8; stroke-linecap: square"/>
     </g>
     <g id="line2d_42">
      <g>
       <use xlink:href="#m356211fc6e" x="654.026563" y="258.328987" style="stroke: #000000; stroke-width: 0.8"/>
      </g>
     </g>
     <g id="text_24">
      <!-- 0.05 -->
      <g transform="translate(605.995313 265.927425) scale(0.2 -0.2)">
       <use xlink:href="#DejaVuSans-30"/>
       <use xlink:href="#DejaVuSans-2e" x="63.623047"/>
       <use xlink:href="#DejaVuSans-30" x="95.410156"/>
       <use xlink:href="#DejaVuSans-35" x="159.033203"/>
      </g>
     </g>
    </g>
    <g id="ytick_11">
     <g id="line2d_43">
      <path d="M 654.026563 177.484845 
L 1126.586563 177.484845 
" clip-path="url(#pe0dd937b29)" style="fill: none; stroke: #808080; stroke-opacity: 0.5; stroke-width: 0.8; stroke-linecap: square"/>
     </g>
     <g id="line2d_44">
      <g>
       <use xlink:href="#m356211fc6e" x="654.026563" y="177.484845" style="stroke: #000000; stroke-width: 0.8"/>
      </g>
     </g>
     <g id="text_25">
      <!-- 0.10 -->
      <g transform="translate(605.995313 185.083283) scale(0.2 -0.2)">
       <use xlink:href="#DejaVuSans-30"/>
       <use xlink:href="#DejaVuSans-2e" x="63.623047"/>
       <use xlink:href="#DejaVuSans-31" x="95.410156"/>
       <use xlink:href="#DejaVuSans-30" x="159.033203"/>
      </g>
     </g>
    </g>
    <g id="ytick_12">
     <g id="line2d_45">
      <path d="M 654.026563 96.640703 
L 1126.586563 96.640703 
" clip-path="url(#pe0dd937b29)" style="fill: none; stroke: #808080; stroke-opacity: 0.5; stroke-width: 0.8; stroke-linecap: square"/>
     </g>
     <g id="line2d_46">
      <g>
       <use xlink:href="#m356211fc6e" x="654.026563" y="96.640703" style="stroke: #000000; stroke-width: 0.8"/>
      </g>
     </g>
     <g id="text_26">
      <!-- 0.15 -->
      <g transform="translate(605.995313 104.239141) scale(0.2 -0.2)">
       <use xlink:href="#DejaVuSans-30"/>
       <use xlink:href="#DejaVuSans-2e" x="63.623047"/>
       <use xlink:href="#DejaVuSans-31" x="95.410156"/>
       <use xlink:href="#DejaVuSans-35" x="159.033203"/>
      </g>
     </g>
    </g>
    <g id="ytick_13">
     <g id="line2d_47">
      <path d="M 654.026563 15.796561 
L 1126.586563 15.796561 
" clip-path="url(#pe0dd937b29)" style="fill: none; stroke: #808080; stroke-opacity: 0.5; stroke-width: 0.8; stroke-linecap: square"/>
     </g>
     <g id="line2d_48">
      <g>
       <use xlink:href="#m356211fc6e" x="654.026563" y="15.796561" style="stroke: #000000; stroke-width: 0.8"/>
      </g>
     </g>
     <g id="text_27">
      <!-- 0.20 -->
      <g transform="translate(605.995313 23.394998) scale(0.2 -0.2)">
       <use xlink:href="#DejaVuSans-30"/>
       <use xlink:href="#DejaVuSans-2e" x="63.623047"/>
       <use xlink:href="#DejaVuSans-32" x="95.410156"/>
       <use xlink:href="#DejaVuSans-30" x="159.033203"/>
      </g>
     </g>
    </g>
    <g id="text_28">
     <!-- Clone rate -->
     <g transform="translate(596.796094 241.829315) rotate(-90) scale(0.25 -0.25)">
      <defs>
       <path id="DejaVuSans-43" d="M 4122 4306 
L 4122 3641 
Q 3803 3938 3442 4084 
Q 3081 4231 2675 4231 
Q 1875 4231 1450 3742 
Q 1025 3253 1025 2328 
Q 1025 1406 1450 917 
Q 1875 428 2675 428 
Q 3081 428 3442 575 
Q 3803 722 4122 1019 
L 4122 359 
Q 3791 134 3420 21 
Q 3050 -91 2638 -91 
Q 1578 -91 968 557 
Q 359 1206 359 2328 
Q 359 3453 968 4101 
Q 1578 4750 2638 4750 
Q 3056 4750 3426 4639 
Q 3797 4528 4122 4306 
z
" transform="scale(0.015625)"/>
      </defs>
      <use xlink:href="#DejaVuSans-43"/>
      <use xlink:href="#DejaVuSans-6c" x="69.824219"/>
      <use xlink:href="#DejaVuSans-6f" x="97.607422"/>
      <use xlink:href="#DejaVuSans-6e" x="158.789062"/>
      <use xlink:href="#DejaVuSans-65" x="222.167969"/>
      <use xlink:href="#DejaVuSans-20" x="283.691406"/>
      <use xlink:href="#DejaVuSans-72" x="315.478516"/>
      <use xlink:href="#DejaVuSans-61" x="356.591797"/>
      <use xlink:href="#DejaVuSans-74" x="417.871094"/>
      <use xlink:href="#DejaVuSans-65" x="457.080078"/>
     </g>
    </g>
   </g>
   <g id="line2d_49">
    <path d="M 675.506563 296.716998 
L 729.206563 323.759154 
L 739.946563 325.76638 
L 750.686563 325.911721 
L 761.426563 327.057326 
L 772.166563 326.48491 
L 782.906563 326.483779 
L 793.646563 326.337292 
L 804.386563 326.189595 
L 815.126563 325.901072 
L 825.866563 325.462171 
L 836.606563 324.315521 
L 890.306563 319.54481 
L 997.706563 287.661818 
L 1105.106563 112.782628 
" clip-path="url(#pe0dd937b29)" style="fill: none; stroke: #1f77b4; stroke-width: 1.5; stroke-linecap: square"/>
    <g clip-path="url(#pe0dd937b29)">
     <use xlink:href="#m6002b61833" x="675.506563" y="296.716998" style="fill: #1f77b4; stroke: #1f77b4"/>
     <use xlink:href="#m6002b61833" x="729.206563" y="323.759154" style="fill: #1f77b4; stroke: #1f77b4"/>
     <use xlink:href="#m6002b61833" x="739.946563" y="325.76638" style="fill: #1f77b4; stroke: #1f77b4"/>
     <use xlink:href="#m6002b61833" x="750.686563" y="325.911721" style="fill: #1f77b4; stroke: #1f77b4"/>
     <use xlink:href="#m6002b61833" x="761.426563" y="327.057326" style="fill: #1f77b4; stroke: #1f77b4"/>
     <use xlink:href="#m6002b61833" x="772.166563" y="326.48491" style="fill: #1f77b4; stroke: #1f77b4"/>
     <use xlink:href="#m6002b61833" x="782.906563" y="326.483779" style="fill: #1f77b4; stroke: #1f77b4"/>
     <use xlink:href="#m6002b61833" x="793.646563" y="326.337292" style="fill: #1f77b4; stroke: #1f77b4"/>
     <use xlink:href="#m6002b61833" x="804.386563" y="326.189595" style="fill: #1f77b4; stroke: #1f77b4"/>
     <use xlink:href="#m6002b61833" x="815.126563" y="325.901072" style="fill: #1f77b4; stroke: #1f77b4"/>
     <use xlink:href="#m6002b61833" x="825.866563" y="325.462171" style="fill: #1f77b4; stroke: #1f77b4"/>
     <use xlink:href="#m6002b61833" x="836.606563" y="324.315521" style="fill: #1f77b4; stroke: #1f77b4"/>
     <use xlink:href="#m6002b61833" x="890.306563" y="319.54481" style="fill: #1f77b4; stroke: #1f77b4"/>
     <use xlink:href="#m6002b61833" x="997.706563" y="287.661818" style="fill: #1f77b4; stroke: #1f77b4"/>
     <use xlink:href="#m6002b61833" x="1105.106563" y="112.782628" style="fill: #1f77b4; stroke: #1f77b4"/>
    </g>
   </g>
   <g id="line2d_50">
    <path d="M 675.506563 25.612376 
L 729.206563 271.26405 
L 739.946563 274.238076 
L 750.686563 289.777523 
L 761.426563 289.777523 
L 772.166563 289.777523 
L 782.906563 289.676716 
L 793.646563 289.473862 
L 804.386563 302.349711 
L 815.126563 298.751059 
L 825.866563 292.014047 
L 836.606563 295.291132 
L 890.306563 288.113671 
L 997.706563 221.386962 
L 1105.106563 78.247591 
" clip-path="url(#pe0dd937b29)" style="fill: none; stroke: #ff7f0e; stroke-width: 1.5; stroke-linecap: square"/>
    <g clip-path="url(#pe0dd937b29)">
     <use xlink:href="#m011bcec02e" x="675.506563" y="25.612376" style="fill: #ff7f0e; stroke: #ff7f0e"/>
     <use xlink:href="#m011bcec02e" x="729.206563" y="271.26405" style="fill: #ff7f0e; stroke: #ff7f0e"/>
     <use xlink:href="#m011bcec02e" x="739.946563" y="274.238076" style="fill: #ff7f0e; stroke: #ff7f0e"/>
     <use xlink:href="#m011bcec02e" x="750.686563" y="289.777523" style="fill: #ff7f0e; stroke: #ff7f0e"/>
     <use xlink:href="#m011bcec02e" x="761.426563" y="289.777523" style="fill: #ff7f0e; stroke: #ff7f0e"/>
     <use xlink:href="#m011bcec02e" x="772.166563" y="289.777523" style="fill: #ff7f0e; stroke: #ff7f0e"/>
     <use xlink:href="#m011bcec02e" x="782.906563" y="289.676716" style="fill: #ff7f0e; stroke: #ff7f0e"/>
     <use xlink:href="#m011bcec02e" x="793.646563" y="289.473862" style="fill: #ff7f0e; stroke: #ff7f0e"/>
     <use xlink:href="#m011bcec02e" x="804.386563" y="302.349711" style="fill: #ff7f0e; stroke: #ff7f0e"/>
     <use xlink:href="#m011bcec02e" x="815.126563" y="298.751059" style="fill: #ff7f0e; stroke: #ff7f0e"/>
     <use xlink:href="#m011bcec02e" x="825.866563" y="292.014047" style="fill: #ff7f0e; stroke: #ff7f0e"/>
     <use xlink:href="#m011bcec02e" x="836.606563" y="295.291132" style="fill: #ff7f0e; stroke: #ff7f0e"/>
     <use xlink:href="#m011bcec02e" x="890.306563" y="288.113671" style="fill: #ff7f0e; stroke: #ff7f0e"/>
     <use xlink:href="#m011bcec02e" x="997.706563" y="221.386962" style="fill: #ff7f0e; stroke: #ff7f0e"/>
     <use xlink:href="#m011bcec02e" x="1105.106563" y="78.247591" style="fill: #ff7f0e; stroke: #ff7f0e"/>
    </g>
   </g>
   <g id="line2d_51">
    <path d="M 675.506563 306.835473 
L 729.206563 317.614692 
L 739.946563 317.686314 
L 750.686563 312.403546 
L 761.426563 312.314611 
L 772.166563 317.686314 
L 782.906563 322.950225 
L 793.646563 317.686314 
L 804.386563 328.321567 
L 815.126563 328.393911 
L 825.866563 323.004301 
L 836.606563 323.004301 
L 890.306563 328.248246 
L 997.706563 316.871297 
L 1105.106563 197.772729 
" clip-path="url(#pe0dd937b29)" style="fill: none; stroke: #2ca02c; stroke-width: 1.5; stroke-linecap: square"/>
    <g clip-path="url(#pe0dd937b29)">
     <use xlink:href="#mec9df6b165" x="675.506563" y="306.835473" style="fill: #2ca02c; stroke: #2ca02c"/>
     <use xlink:href="#mec9df6b165" x="729.206563" y="317.614692" style="fill: #2ca02c; stroke: #2ca02c"/>
     <use xlink:href="#mec9df6b165" x="739.946563" y="317.686314" style="fill: #2ca02c; stroke: #2ca02c"/>
     <use xlink:href="#mec9df6b165" x="750.686563" y="312.403546" style="fill: #2ca02c; stroke: #2ca02c"/>
     <use xlink:href="#mec9df6b165" x="761.426563" y="312.314611" style="fill: #2ca02c; stroke: #2ca02c"/>
     <use xlink:href="#mec9df6b165" x="772.166563" y="317.686314" style="fill: #2ca02c; stroke: #2ca02c"/>
     <use xlink:href="#mec9df6b165" x="782.906563" y="322.950225" style="fill: #2ca02c; stroke: #2ca02c"/>
     <use xlink:href="#mec9df6b165" x="793.646563" y="317.686314" style="fill: #2ca02c; stroke: #2ca02c"/>
     <use xlink:href="#mec9df6b165" x="804.386563" y="328.321567" style="fill: #2ca02c; stroke: #2ca02c"/>
     <use xlink:href="#mec9df6b165" x="815.126563" y="328.393911" style="fill: #2ca02c; stroke: #2ca02c"/>
     <use xlink:href="#mec9df6b165" x="825.866563" y="323.004301" style="fill: #2ca02c; stroke: #2ca02c"/>
     <use xlink:href="#mec9df6b165" x="836.606563" y="323.004301" style="fill: #2ca02c; stroke: #2ca02c"/>
     <use xlink:href="#mec9df6b165" x="890.306563" y="328.248246" style="fill: #2ca02c; stroke: #2ca02c"/>
     <use xlink:href="#mec9df6b165" x="997.706563" y="316.871297" style="fill: #2ca02c; stroke: #2ca02c"/>
     <use xlink:href="#mec9df6b165" x="1105.106563" y="197.772729" style="fill: #2ca02c; stroke: #2ca02c"/>
    </g>
   </g>
   <g id="patch_9">
    <path d="M 654.026563 343.532987 
L 654.026563 10.473299 
" style="fill: none; stroke: #000000; stroke-width: 0.8; stroke-linejoin: miter; stroke-linecap: square"/>
   </g>
   <g id="patch_10">
    <path d="M 1126.586563 343.532987 
L 1126.586563 10.473299 
" style="fill: none; stroke: #000000; stroke-width: 0.8; stroke-linejoin: miter; stroke-linecap: square"/>
   </g>
   <g id="patch_11">
    <path d="M 654.026563 343.532987 
L 1126.586563 343.532987 
" style="fill: none; stroke: #000000; stroke-width: 0.8; stroke-linejoin: miter; stroke-linecap: square"/>
   </g>
   <g id="patch_12">
    <path d="M 654.026563 10.473299 
L 1126.586563 10.473299 
" style="fill: none; stroke: #000000; stroke-width: 0.8; stroke-linejoin: miter; stroke-linecap: square"/>
   </g>
  </g>
  <g id="axes_3">
   <g id="patch_13">
    <path d="M 1224.626563 343.532987 
L 1697.186563 343.532987 
L 1697.186563 10.473299 
L 1224.626563 10.473299 
z
" style="fill: #ffffff"/>
   </g>
   <g id="matplotlib.axis_5">
    <g id="xtick_9">
     <g id="line2d_52">
      <path d="M 1299.806563 343.532987 
L 1299.806563 10.473299 
" clip-path="url(#p1a4cf14444)" style="fill: none; stroke: #808080; stroke-opacity: 0.5; stroke-width: 0.8; stroke-linecap: square"/>
     </g>
     <g id="line2d_53">
      <g>
       <use xlink:href="#m0014144dd7" x="1299.806563" y="343.532987" style="stroke: #000000; stroke-width: 0.8"/>
      </g>
     </g>
     <g id="text_29">
      <!-- 0.2 -->
      <g transform="translate(1283.903438 362.229862) scale(0.2 -0.2)">
       <use xlink:href="#DejaVuSans-30"/>
       <use xlink:href="#DejaVuSans-2e" x="63.623047"/>
       <use xlink:href="#DejaVuSans-32" x="95.410156"/>
      </g>
     </g>
    </g>
    <g id="xtick_10">
     <g id="line2d_54">
      <path d="M 1407.206563 343.532987 
L 1407.206563 10.473299 
" clip-path="url(#p1a4cf14444)" style="fill: none; stroke: #808080; stroke-opacity: 0.5; stroke-width: 0.8; stroke-linecap: square"/>
     </g>
     <g id="line2d_55">
      <g>
       <use xlink:href="#m0014144dd7" x="1407.206563" y="343.532987" style="stroke: #000000; stroke-width: 0.8"/>
      </g>
     </g>
     <g id="text_30">
      <!-- 0.4 -->
      <g transform="translate(1391.303438 362.229862) scale(0.2 -0.2)">
       <use xlink:href="#DejaVuSans-30"/>
       <use xlink:href="#DejaVuSans-2e" x="63.623047"/>
       <use xlink:href="#DejaVuSans-34" x="95.410156"/>
      </g>
     </g>
    </g>
    <g id="xtick_11">
     <g id="line2d_56">
      <path d="M 1514.606563 343.532987 
L 1514.606563 10.473299 
" clip-path="url(#p1a4cf14444)" style="fill: none; stroke: #808080; stroke-opacity: 0.5; stroke-width: 0.8; stroke-linecap: square"/>
     </g>
     <g id="line2d_57">
      <g>
       <use xlink:href="#m0014144dd7" x="1514.606563" y="343.532987" style="stroke: #000000; stroke-width: 0.8"/>
      </g>
     </g>
     <g id="text_31">
      <!-- 0.6 -->
      <g transform="translate(1498.703438 362.229862) scale(0.2 -0.2)">
       <use xlink:href="#DejaVuSans-30"/>
       <use xlink:href="#DejaVuSans-2e" x="63.623047"/>
       <use xlink:href="#DejaVuSans-36" x="95.410156"/>
      </g>
     </g>
    </g>
    <g id="xtick_12">
     <g id="line2d_58">
      <path d="M 1622.006562 343.532987 
L 1622.006562 10.473299 
" clip-path="url(#p1a4cf14444)" style="fill: none; stroke: #808080; stroke-opacity: 0.5; stroke-width: 0.8; stroke-linecap: square"/>
     </g>
     <g id="line2d_59">
      <g>
       <use xlink:href="#m0014144dd7" x="1622.006562" y="343.532987" style="stroke: #000000; stroke-width: 0.8"/>
      </g>
     </g>
     <g id="text_32">
      <!-- 0.8 -->
      <g transform="translate(1606.103437 362.229862) scale(0.2 -0.2)">
       <use xlink:href="#DejaVuSans-30"/>
       <use xlink:href="#DejaVuSans-2e" x="63.623047"/>
       <use xlink:href="#DejaVuSans-38" x="95.410156"/>
      </g>
     </g>
    </g>
    <g id="text_33">
     <!-- Score cut -->
     <g transform="translate(1402.232734 389.385331) scale(0.25 -0.25)">
      <use xlink:href="#DejaVuSans-53"/>
      <use xlink:href="#DejaVuSans-63" x="63.476562"/>
      <use xlink:href="#DejaVuSans-6f" x="118.457031"/>
      <use xlink:href="#DejaVuSans-72" x="179.638672"/>
      <use xlink:href="#DejaVuSans-65" x="218.501953"/>
      <use xlink:href="#DejaVuSans-20" x="280.025391"/>
      <use xlink:href="#DejaVuSans-63" x="311.8125"/>
      <use xlink:href="#DejaVuSans-75" x="366.792969"/>
      <use xlink:href="#DejaVuSans-74" x="430.171875"/>
     </g>
    </g>
   </g>
   <g id="matplotlib.axis_6">
    <g id="ytick_14">
     <g id="line2d_60">
      <path d="M 1224.626563 305.184246 
L 1697.186563 305.184246 
" clip-path="url(#p1a4cf14444)" style="fill: none; stroke: #808080; stroke-opacity: 0.5; stroke-width: 0.8; stroke-linecap: square"/>
     </g>
     <g id="line2d_61">
      <g>
       <use xlink:href="#m356211fc6e" x="1224.626563" y="305.184246" style="stroke: #000000; stroke-width: 0.8"/>
      </g>
     </g>
     <g id="text_34">
      <!-- 0.70 -->
      <g transform="translate(1176.595313 312.782684) scale(0.2 -0.2)">
       <use xlink:href="#DejaVuSans-30"/>
       <use xlink:href="#DejaVuSans-2e" x="63.623047"/>
       <use xlink:href="#DejaVuSans-37" x="95.410156"/>
       <use xlink:href="#DejaVuSans-30" x="159.033203"/>
      </g>
     </g>
    </g>
    <g id="ytick_15">
     <g id="line2d_62">
      <path d="M 1224.626563 256.786611 
L 1697.186563 256.786611 
" clip-path="url(#p1a4cf14444)" style="fill: none; stroke: #808080; stroke-opacity: 0.5; stroke-width: 0.8; stroke-linecap: square"/>
     </g>
     <g id="line2d_63">
      <g>
       <use xlink:href="#m356211fc6e" x="1224.626563" y="256.786611" style="stroke: #000000; stroke-width: 0.8"/>
      </g>
     </g>
     <g id="text_35">
      <!-- 0.75 -->
      <g transform="translate(1176.595313 264.385049) scale(0.2 -0.2)">
       <use xlink:href="#DejaVuSans-30"/>
       <use xlink:href="#DejaVuSans-2e" x="63.623047"/>
       <use xlink:href="#DejaVuSans-37" x="95.410156"/>
       <use xlink:href="#DejaVuSans-35" x="159.033203"/>
      </g>
     </g>
    </g>
    <g id="ytick_16">
     <g id="line2d_64">
      <path d="M 1224.626563 208.388977 
L 1697.186563 208.388977 
" clip-path="url(#p1a4cf14444)" style="fill: none; stroke: #808080; stroke-opacity: 0.5; stroke-width: 0.8; stroke-linecap: square"/>
     </g>
     <g id="line2d_65">
      <g>
       <use xlink:href="#m356211fc6e" x="1224.626563" y="208.388977" style="stroke: #000000; stroke-width: 0.8"/>
      </g>
     </g>
     <g id="text_36">
      <!-- 0.80 -->
      <g transform="translate(1176.595313 215.987414) scale(0.2 -0.2)">
       <use xlink:href="#DejaVuSans-30"/>
       <use xlink:href="#DejaVuSans-2e" x="63.623047"/>
       <use xlink:href="#DejaVuSans-38" x="95.410156"/>
       <use xlink:href="#DejaVuSans-30" x="159.033203"/>
      </g>
     </g>
    </g>
    <g id="ytick_17">
     <g id="line2d_66">
      <path d="M 1224.626563 159.991342 
L 1697.186563 159.991342 
" clip-path="url(#p1a4cf14444)" style="fill: none; stroke: #808080; stroke-opacity: 0.5; stroke-width: 0.8; stroke-linecap: square"/>
     </g>
     <g id="line2d_67">
      <g>
       <use xlink:href="#m356211fc6e" x="1224.626563" y="159.991342" style="stroke: #000000; stroke-width: 0.8"/>
      </g>
     </g>
     <g id="text_37">
      <!-- 0.85 -->
      <g transform="translate(1176.595313 167.589779) scale(0.2 -0.2)">
       <use xlink:href="#DejaVuSans-30"/>
       <use xlink:href="#DejaVuSans-2e" x="63.623047"/>
       <use xlink:href="#DejaVuSans-38" x="95.410156"/>
       <use xlink:href="#DejaVuSans-35" x="159.033203"/>
      </g>
     </g>
    </g>
    <g id="ytick_18">
     <g id="line2d_68">
      <path d="M 1224.626563 111.593707 
L 1697.186563 111.593707 
" clip-path="url(#p1a4cf14444)" style="fill: none; stroke: #808080; stroke-opacity: 0.5; stroke-width: 0.8; stroke-linecap: square"/>
     </g>
     <g id="line2d_69">
      <g>
       <use xlink:href="#m356211fc6e" x="1224.626563" y="111.593707" style="stroke: #000000; stroke-width: 0.8"/>
      </g>
     </g>
     <g id="text_38">
      <!-- 0.90 -->
      <g transform="translate(1176.595313 119.192145) scale(0.2 -0.2)">
       <use xlink:href="#DejaVuSans-30"/>
       <use xlink:href="#DejaVuSans-2e" x="63.623047"/>
       <use xlink:href="#DejaVuSans-39" x="95.410156"/>
       <use xlink:href="#DejaVuSans-30" x="159.033203"/>
      </g>
     </g>
    </g>
    <g id="ytick_19">
     <g id="line2d_70">
      <path d="M 1224.626563 63.196072 
L 1697.186563 63.196072 
" clip-path="url(#p1a4cf14444)" style="fill: none; stroke: #808080; stroke-opacity: 0.5; stroke-width: 0.8; stroke-linecap: square"/>
     </g>
     <g id="line2d_71">
      <g>
       <use xlink:href="#m356211fc6e" x="1224.626563" y="63.196072" style="stroke: #000000; stroke-width: 0.8"/>
      </g>
     </g>
     <g id="text_39">
      <!-- 0.95 -->
      <g transform="translate(1176.595313 70.79451) scale(0.2 -0.2)">
       <use xlink:href="#DejaVuSans-30"/>
       <use xlink:href="#DejaVuSans-2e" x="63.623047"/>
       <use xlink:href="#DejaVuSans-39" x="95.410156"/>
       <use xlink:href="#DejaVuSans-35" x="159.033203"/>
      </g>
     </g>
    </g>
    <g id="ytick_20">
     <g id="line2d_72">
      <path d="M 1224.626563 14.798437 
L 1697.186563 14.798437 
" clip-path="url(#p1a4cf14444)" style="fill: none; stroke: #808080; stroke-opacity: 0.5; stroke-width: 0.8; stroke-linecap: square"/>
     </g>
     <g id="line2d_73">
      <g>
       <use xlink:href="#m356211fc6e" x="1224.626563" y="14.798437" style="stroke: #000000; stroke-width: 0.8"/>
      </g>
     </g>
     <g id="text_40">
      <!-- 1.00 -->
      <g transform="translate(1176.595313 22.396875) scale(0.2 -0.2)">
       <use xlink:href="#DejaVuSans-31"/>
       <use xlink:href="#DejaVuSans-2e" x="63.623047"/>
       <use xlink:href="#DejaVuSans-30" x="95.410156"/>
       <use xlink:href="#DejaVuSans-30" x="159.033203"/>
      </g>
     </g>
    </g>
    <g id="text_41">
     <!-- Average hit efficiency -->
     <g transform="translate(1167.396094 312.770721) rotate(-90) scale(0.25 -0.25)">
      <defs>
       <path id="DejaVuSans-41" d="M 2188 4044 
L 1331 1722 
L 3047 1722 
L 2188 4044 
z
M 1831 4666 
L 2547 4666 
L 4325 0 
L 3669 0 
L 3244 1197 
L 1141 1197 
L 716 0 
L 50 0 
L 1831 4666 
z
" transform="scale(0.015625)"/>
       <path id="DejaVuSans-76" d="M 191 3500 
L 800 3500 
L 1894 563 
L 2988 3500 
L 3597 3500 
L 2284 0 
L 1503 0 
L 191 3500 
z
" transform="scale(0.015625)"/>
       <path id="DejaVuSans-68" d="M 3513 2113 
L 3513 0 
L 2938 0 
L 2938 2094 
Q 2938 2591 2744 2837 
Q 2550 3084 2163 3084 
Q 1697 3084 1428 2787 
Q 1159 2491 1159 1978 
L 1159 0 
L 581 0 
L 581 4863 
L 1159 4863 
L 1159 2956 
Q 1366 3272 1645 3428 
Q 1925 3584 2291 3584 
Q 2894 3584 3203 3211 
Q 3513 2838 3513 2113 
z
" transform="scale(0.015625)"/>
      </defs>
      <use xlink:href="#DejaVuSans-41"/>
      <use xlink:href="#DejaVuSans-76" x="62.533203"/>
      <use xlink:href="#DejaVuSans-65" x="121.712891"/>
      <use xlink:href="#DejaVuSans-72" x="183.236328"/>
      <use xlink:href="#DejaVuSans-61" x="224.349609"/>
      <use xlink:href="#DejaVuSans-67" x="285.628906"/>
      <use xlink:href="#DejaVuSans-65" x="349.105469"/>
      <use xlink:href="#DejaVuSans-20" x="410.628906"/>
      <use xlink:href="#DejaVuSans-68" x="442.416016"/>
      <use xlink:href="#DejaVuSans-69" x="505.794922"/>
      <use xlink:href="#DejaVuSans-74" x="533.578125"/>
      <use xlink:href="#DejaVuSans-20" x="572.787109"/>
      <use xlink:href="#DejaVuSans-65" x="604.574219"/>
      <use xlink:href="#DejaVuSans-66" x="666.097656"/>
      <use xlink:href="#DejaVuSans-66" x="701.302734"/>
      <use xlink:href="#DejaVuSans-69" x="736.507812"/>
      <use xlink:href="#DejaVuSans-63" x="764.291016"/>
      <use xlink:href="#DejaVuSans-69" x="819.271484"/>
      <use xlink:href="#DejaVuSans-65" x="847.054688"/>
      <use xlink:href="#DejaVuSans-6e" x="908.578125"/>
      <use xlink:href="#DejaVuSans-63" x="971.957031"/>
      <use xlink:href="#DejaVuSans-79" x="1026.9375"/>
     </g>
    </g>
   </g>
   <g id="line2d_74">
    <path d="M 1246.106563 31.08746 
L 1299.806563 25.832137 
L 1310.546563 25.612376 
L 1321.286563 25.918795 
L 1332.026563 25.940064 
L 1342.766563 26.525247 
L 1353.506563 27.046578 
L 1364.246563 27.453804 
L 1374.986563 27.912481 
L 1385.726563 28.393602 
L 1396.466563 28.938512 
L 1407.206563 29.970503 
L 1460.906563 33.91448 
L 1568.306562 57.583032 
L 1675.706563 202.563125 
" clip-path="url(#p1a4cf14444)" style="fill: none; stroke: #1f77b4; stroke-width: 1.5; stroke-linecap: square"/>
    <g clip-path="url(#p1a4cf14444)">
     <use xlink:href="#m6002b61833" x="1246.106563" y="31.08746" style="fill: #1f77b4; stroke: #1f77b4"/>
     <use xlink:href="#m6002b61833" x="1299.806563" y="25.832137" style="fill: #1f77b4; stroke: #1f77b4"/>
     <use xlink:href="#m6002b61833" x="1310.546563" y="25.612376" style="fill: #1f77b4; stroke: #1f77b4"/>
     <use xlink:href="#m6002b61833" x="1321.286563" y="25.918795" style="fill: #1f77b4; stroke: #1f77b4"/>
     <use xlink:href="#m6002b61833" x="1332.026563" y="25.940064" style="fill: #1f77b4; stroke: #1f77b4"/>
     <use xlink:href="#m6002b61833" x="1342.766563" y="26.525247" style="fill: #1f77b4; stroke: #1f77b4"/>
     <use xlink:href="#m6002b61833" x="1353.506563" y="27.046578" style="fill: #1f77b4; stroke: #1f77b4"/>
     <use xlink:href="#m6002b61833" x="1364.246563" y="27.453804" style="fill: #1f77b4; stroke: #1f77b4"/>
     <use xlink:href="#m6002b61833" x="1374.986563" y="27.912481" style="fill: #1f77b4; stroke: #1f77b4"/>
     <use xlink:href="#m6002b61833" x="1385.726563" y="28.393602" style="fill: #1f77b4; stroke: #1f77b4"/>
     <use xlink:href="#m6002b61833" x="1396.466563" y="28.938512" style="fill: #1f77b4; stroke: #1f77b4"/>
     <use xlink:href="#m6002b61833" x="1407.206563" y="29.970503" style="fill: #1f77b4; stroke: #1f77b4"/>
     <use xlink:href="#m6002b61833" x="1460.906563" y="33.91448" style="fill: #1f77b4; stroke: #1f77b4"/>
     <use xlink:href="#m6002b61833" x="1568.306562" y="57.583032" style="fill: #1f77b4; stroke: #1f77b4"/>
     <use xlink:href="#m6002b61833" x="1675.706563" y="202.563125" style="fill: #1f77b4; stroke: #1f77b4"/>
    </g>
   </g>
   <g id="line2d_75">
    <path d="M 1246.106563 109.281471 
L 1299.806563 32.451772 
L 1310.546563 32.036748 
L 1321.286563 29.128284 
L 1332.026563 31.007604 
L 1342.766563 31.89473 
L 1353.506563 32.715987 
L 1364.246563 33.17934 
L 1374.986563 29.189757 
L 1385.726563 29.962587 
L 1396.466563 34.245393 
L 1407.206563 36.317997 
L 1460.906563 45.222183 
L 1568.306562 126.073369 
L 1675.706563 328.393911 
" clip-path="url(#p1a4cf14444)" style="fill: none; stroke: #ff7f0e; stroke-width: 1.5; stroke-linecap: square"/>
    <g clip-path="url(#p1a4cf14444)">
     <use xlink:href="#m011bcec02e" x="1246.106563" y="109.281471" style="fill: #ff7f0e; stroke: #ff7f0e"/>
     <use xlink:href="#m011bcec02e" x="1299.806563" y="32.451772" style="fill: #ff7f0e; stroke: #ff7f0e"/>
     <use xlink:href="#m011bcec02e" x="1310.546563" y="32.036748" style="fill: #ff7f0e; stroke: #ff7f0e"/>
     <use xlink:href="#m011bcec02e" x="1321.286563" y="29.128284" style="fill: #ff7f0e; stroke: #ff7f0e"/>
     <use xlink:href="#m011bcec02e" x="1332.026563" y="31.007604" style="fill: #ff7f0e; stroke: #ff7f0e"/>
     <use xlink:href="#m011bcec02e" x="1342.766563" y="31.89473" style="fill: #ff7f0e; stroke: #ff7f0e"/>
     <use xlink:href="#m011bcec02e" x="1353.506563" y="32.715987" style="fill: #ff7f0e; stroke: #ff7f0e"/>
     <use xlink:href="#m011bcec02e" x="1364.246563" y="33.17934" style="fill: #ff7f0e; stroke: #ff7f0e"/>
     <use xlink:href="#m011bcec02e" x="1374.986563" y="29.189757" style="fill: #ff7f0e; stroke: #ff7f0e"/>
     <use xlink:href="#m011bcec02e" x="1385.726563" y="29.962587" style="fill: #ff7f0e; stroke: #ff7f0e"/>
     <use xlink:href="#m011bcec02e" x="1396.466563" y="34.245393" style="fill: #ff7f0e; stroke: #ff7f0e"/>
     <use xlink:href="#m011bcec02e" x="1407.206563" y="36.317997" style="fill: #ff7f0e; stroke: #ff7f0e"/>
     <use xlink:href="#m011bcec02e" x="1460.906563" y="45.222183" style="fill: #ff7f0e; stroke: #ff7f0e"/>
     <use xlink:href="#m011bcec02e" x="1568.306562" y="126.073369" style="fill: #ff7f0e; stroke: #ff7f0e"/>
     <use xlink:href="#m011bcec02e" x="1675.706563" y="328.393911" style="fill: #ff7f0e; stroke: #ff7f0e"/>
    </g>
   </g>
   <g id="line2d_76">
    <path d="M 1246.106563 28.170525 
L 1299.806563 27.991274 
L 1310.546563 27.947444 
L 1321.286563 30.752919 
L 1332.026563 30.805924 
L 1342.766563 29.733994 
L 1353.506563 27.810585 
L 1364.246563 28.528073 
L 1374.986563 28.016658 
L 1385.726563 27.928537 
L 1396.466563 29.138477 
L 1407.206563 28.33185 
L 1460.906563 28.355122 
L 1568.306562 49.069791 
L 1675.706563 210.099442 
" clip-path="url(#p1a4cf14444)" style="fill: none; stroke: #2ca02c; stroke-width: 1.5; stroke-linecap: square"/>
    <g clip-path="url(#p1a4cf14444)">
     <use xlink:href="#mec9df6b165" x="1246.106563" y="28.170525" style="fill: #2ca02c; stroke: #2ca02c"/>
     <use xlink:href="#mec9df6b165" x="1299.806563" y="27.991274" style="fill: #2ca02c; stroke: #2ca02c"/>
     <use xlink:href="#mec9df6b165" x="1310.546563" y="27.947444" style="fill: #2ca02c; stroke: #2ca02c"/>
     <use xlink:href="#mec9df6b165" x="1321.286563" y="30.752919" style="fill: #2ca02c; stroke: #2ca02c"/>
     <use xlink:href="#mec9df6b165" x="1332.026563" y="30.805924" style="fill: #2ca02c; stroke: #2ca02c"/>
     <use xlink:href="#mec9df6b165" x="1342.766563" y="29.733994" style="fill: #2ca02c; stroke: #2ca02c"/>
     <use xlink:href="#mec9df6b165" x="1353.506563" y="27.810585" style="fill: #2ca02c; stroke: #2ca02c"/>
     <use xlink:href="#mec9df6b165" x="1364.246563" y="28.528073" style="fill: #2ca02c; stroke: #2ca02c"/>
     <use xlink:href="#mec9df6b165" x="1374.986563" y="28.016658" style="fill: #2ca02c; stroke: #2ca02c"/>
     <use xlink:href="#mec9df6b165" x="1385.726563" y="27.928537" style="fill: #2ca02c; stroke: #2ca02c"/>
     <use xlink:href="#mec9df6b165" x="1396.466563" y="29.138477" style="fill: #2ca02c; stroke: #2ca02c"/>
     <use xlink:href="#mec9df6b165" x="1407.206563" y="28.33185" style="fill: #2ca02c; stroke: #2ca02c"/>
     <use xlink:href="#mec9df6b165" x="1460.906563" y="28.355122" style="fill: #2ca02c; stroke: #2ca02c"/>
     <use xlink:href="#mec9df6b165" x="1568.306562" y="49.069791" style="fill: #2ca02c; stroke: #2ca02c"/>
     <use xlink:href="#mec9df6b165" x="1675.706563" y="210.099442" style="fill: #2ca02c; stroke: #2ca02c"/>
    </g>
   </g>
   <g id="patch_14">
    <path d="M 1224.626563 343.532987 
L 1224.626563 10.473299 
" style="fill: none; stroke: #000000; stroke-width: 0.8; stroke-linejoin: miter; stroke-linecap: square"/>
   </g>
   <g id="patch_15">
    <path d="M 1697.186563 343.532987 
L 1697.186563 10.473299 
" style="fill: none; stroke: #000000; stroke-width: 0.8; stroke-linejoin: miter; stroke-linecap: square"/>
   </g>
   <g id="patch_16">
    <path d="M 1224.626563 343.532987 
L 1697.186563 343.532987 
" style="fill: none; stroke: #000000; stroke-width: 0.8; stroke-linejoin: miter; stroke-linecap: square"/>
   </g>
   <g id="patch_17">
    <path d="M 1224.626563 10.473299 
L 1697.186563 10.473299 
" style="fill: none; stroke: #000000; stroke-width: 0.8; stroke-linejoin: miter; stroke-linecap: square"/>
   </g>
  </g>
  <g id="axes_4">
   <g id="patch_18">
    <path d="M 1795.226563 343.532987 
L 2267.786562 343.532987 
L 2267.786562 10.473299 
L 1795.226563 10.473299 
z
" style="fill: #ffffff"/>
   </g>
   <g id="matplotlib.axis_7">
    <g id="xtick_13">
     <g id="line2d_77">
      <path d="M 1870.406563 343.532987 
L 1870.406563 10.473299 
" clip-path="url(#p2cbc2436a6)" style="fill: none; stroke: #808080; stroke-opacity: 0.5; stroke-width: 0.8; stroke-linecap: square"/>
     </g>
     <g id="line2d_78">
      <g>
       <use xlink:href="#m0014144dd7" x="1870.406563" y="343.532987" style="stroke: #000000; stroke-width: 0.8"/>
      </g>
     </g>
     <g id="text_42">
      <!-- 0.2 -->
      <g transform="translate(1854.503438 362.229862) scale(0.2 -0.2)">
       <use xlink:href="#DejaVuSans-30"/>
       <use xlink:href="#DejaVuSans-2e" x="63.623047"/>
       <use xlink:href="#DejaVuSans-32" x="95.410156"/>
      </g>
     </g>
    </g>
    <g id="xtick_14">
     <g id="line2d_79">
      <path d="M 1977.806563 343.532987 
L 1977.806563 10.473299 
" clip-path="url(#p2cbc2436a6)" style="fill: none; stroke: #808080; stroke-opacity: 0.5; stroke-width: 0.8; stroke-linecap: square"/>
     </g>
     <g id="line2d_80">
      <g>
       <use xlink:href="#m0014144dd7" x="1977.806563" y="343.532987" style="stroke: #000000; stroke-width: 0.8"/>
      </g>
     </g>
     <g id="text_43">
      <!-- 0.4 -->
      <g transform="translate(1961.903438 362.229862) scale(0.2 -0.2)">
       <use xlink:href="#DejaVuSans-30"/>
       <use xlink:href="#DejaVuSans-2e" x="63.623047"/>
       <use xlink:href="#DejaVuSans-34" x="95.410156"/>
      </g>
     </g>
    </g>
    <g id="xtick_15">
     <g id="line2d_81">
      <path d="M 2085.206563 343.532987 
L 2085.206563 10.473299 
" clip-path="url(#p2cbc2436a6)" style="fill: none; stroke: #808080; stroke-opacity: 0.5; stroke-width: 0.8; stroke-linecap: square"/>
     </g>
     <g id="line2d_82">
      <g>
       <use xlink:href="#m0014144dd7" x="2085.206563" y="343.532987" style="stroke: #000000; stroke-width: 0.8"/>
      </g>
     </g>
     <g id="text_44">
      <!-- 0.6 -->
      <g transform="translate(2069.303438 362.229862) scale(0.2 -0.2)">
       <use xlink:href="#DejaVuSans-30"/>
       <use xlink:href="#DejaVuSans-2e" x="63.623047"/>
       <use xlink:href="#DejaVuSans-36" x="95.410156"/>
      </g>
     </g>
    </g>
    <g id="xtick_16">
     <g id="line2d_83">
      <path d="M 2192.606563 343.532987 
L 2192.606563 10.473299 
" clip-path="url(#p2cbc2436a6)" style="fill: none; stroke: #808080; stroke-opacity: 0.5; stroke-width: 0.8; stroke-linecap: square"/>
     </g>
     <g id="line2d_84">
      <g>
       <use xlink:href="#m0014144dd7" x="2192.606563" y="343.532987" style="stroke: #000000; stroke-width: 0.8"/>
      </g>
     </g>
     <g id="text_45">
      <!-- 0.8 -->
      <g transform="translate(2176.703438 362.229862) scale(0.2 -0.2)">
       <use xlink:href="#DejaVuSans-30"/>
       <use xlink:href="#DejaVuSans-2e" x="63.623047"/>
       <use xlink:href="#DejaVuSans-38" x="95.410156"/>
      </g>
     </g>
    </g>
    <g id="text_46">
     <!-- Score cut -->
     <g transform="translate(1972.832734 389.385331) scale(0.25 -0.25)">
      <use xlink:href="#DejaVuSans-53"/>
      <use xlink:href="#DejaVuSans-63" x="63.476562"/>
      <use xlink:href="#DejaVuSans-6f" x="118.457031"/>
      <use xlink:href="#DejaVuSans-72" x="179.638672"/>
      <use xlink:href="#DejaVuSans-65" x="218.501953"/>
      <use xlink:href="#DejaVuSans-20" x="280.025391"/>
      <use xlink:href="#DejaVuSans-63" x="311.8125"/>
      <use xlink:href="#DejaVuSans-75" x="366.792969"/>
      <use xlink:href="#DejaVuSans-74" x="430.171875"/>
     </g>
    </g>
   </g>
   <g id="matplotlib.axis_8">
    <g id="ytick_21">
     <g id="line2d_85">
      <path d="M 1795.226563 328.786906 
L 2267.786562 328.786906 
" clip-path="url(#p2cbc2436a6)" style="fill: none; stroke: #808080; stroke-opacity: 0.5; stroke-width: 0.8; stroke-linecap: square"/>
     </g>
     <g id="line2d_86">
      <g>
       <use xlink:href="#m356211fc6e" x="1795.226563" y="328.786906" style="stroke: #000000; stroke-width: 0.8"/>
      </g>
     </g>
     <g id="text_47">
      <!-- 0.00 -->
      <g transform="translate(1747.195313 336.385343) scale(0.2 -0.2)">
       <use xlink:href="#DejaVuSans-30"/>
       <use xlink:href="#DejaVuSans-2e" x="63.623047"/>
       <use xlink:href="#DejaVuSans-30" x="95.410156"/>
       <use xlink:href="#DejaVuSans-30" x="159.033203"/>
      </g>
     </g>
    </g>
    <g id="ytick_22">
     <g id="line2d_87">
      <path d="M 1795.226563 286.590998 
L 2267.786562 286.590998 
" clip-path="url(#p2cbc2436a6)" style="fill: none; stroke: #808080; stroke-opacity: 0.5; stroke-width: 0.8; stroke-linecap: square"/>
     </g>
     <g id="line2d_88">
      <g>
       <use xlink:href="#m356211fc6e" x="1795.226563" y="286.590998" style="stroke: #000000; stroke-width: 0.8"/>
      </g>
     </g>
     <g id="text_48">
      <!-- 0.01 -->
      <g transform="translate(1747.195313 294.189435) scale(0.2 -0.2)">
       <use xlink:href="#DejaVuSans-30"/>
       <use xlink:href="#DejaVuSans-2e" x="63.623047"/>
       <use xlink:href="#DejaVuSans-30" x="95.410156"/>
       <use xlink:href="#DejaVuSans-31" x="159.033203"/>
      </g>
     </g>
    </g>
    <g id="ytick_23">
     <g id="line2d_89">
      <path d="M 1795.226563 244.39509 
L 2267.786562 244.39509 
" clip-path="url(#p2cbc2436a6)" style="fill: none; stroke: #808080; stroke-opacity: 0.5; stroke-width: 0.8; stroke-linecap: square"/>
     </g>
     <g id="line2d_90">
      <g>
       <use xlink:href="#m356211fc6e" x="1795.226563" y="244.39509" style="stroke: #000000; stroke-width: 0.8"/>
      </g>
     </g>
     <g id="text_49">
      <!-- 0.02 -->
      <g transform="translate(1747.195313 251.993527) scale(0.2 -0.2)">
       <use xlink:href="#DejaVuSans-30"/>
       <use xlink:href="#DejaVuSans-2e" x="63.623047"/>
       <use xlink:href="#DejaVuSans-30" x="95.410156"/>
       <use xlink:href="#DejaVuSans-32" x="159.033203"/>
      </g>
     </g>
    </g>
    <g id="ytick_24">
     <g id="line2d_91">
      <path d="M 1795.226563 202.199182 
L 2267.786562 202.199182 
" clip-path="url(#p2cbc2436a6)" style="fill: none; stroke: #808080; stroke-opacity: 0.5; stroke-width: 0.8; stroke-linecap: square"/>
     </g>
     <g id="line2d_92">
      <g>
       <use xlink:href="#m356211fc6e" x="1795.226563" y="202.199182" style="stroke: #000000; stroke-width: 0.8"/>
      </g>
     </g>
     <g id="text_50">
      <!-- 0.03 -->
      <g transform="translate(1747.195313 209.797619) scale(0.2 -0.2)">
       <defs>
        <path id="DejaVuSans-33" d="M 2597 2516 
Q 3050 2419 3304 2112 
Q 3559 1806 3559 1356 
Q 3559 666 3084 287 
Q 2609 -91 1734 -91 
Q 1441 -91 1130 -33 
Q 819 25 488 141 
L 488 750 
Q 750 597 1062 519 
Q 1375 441 1716 441 
Q 2309 441 2620 675 
Q 2931 909 2931 1356 
Q 2931 1769 2642 2001 
Q 2353 2234 1838 2234 
L 1294 2234 
L 1294 2753 
L 1863 2753 
Q 2328 2753 2575 2939 
Q 2822 3125 2822 3475 
Q 2822 3834 2567 4026 
Q 2313 4219 1838 4219 
Q 1578 4219 1281 4162 
Q 984 4106 628 3988 
L 628 4550 
Q 988 4650 1302 4700 
Q 1616 4750 1894 4750 
Q 2613 4750 3031 4423 
Q 3450 4097 3450 3541 
Q 3450 3153 3228 2886 
Q 3006 2619 2597 2516 
z
" transform="scale(0.015625)"/>
       </defs>
       <use xlink:href="#DejaVuSans-30"/>
       <use xlink:href="#DejaVuSans-2e" x="63.623047"/>
       <use xlink:href="#DejaVuSans-30" x="95.410156"/>
       <use xlink:href="#DejaVuSans-33" x="159.033203"/>
      </g>
     </g>
    </g>
    <g id="ytick_25">
     <g id="line2d_93">
      <path d="M 1795.226563 160.003274 
L 2267.786562 160.003274 
" clip-path="url(#p2cbc2436a6)" style="fill: none; stroke: #808080; stroke-opacity: 0.5; stroke-width: 0.8; stroke-linecap: square"/>
     </g>
     <g id="line2d_94">
      <g>
       <use xlink:href="#m356211fc6e" x="1795.226563" y="160.003274" style="stroke: #000000; stroke-width: 0.8"/>
      </g>
     </g>
     <g id="text_51">
      <!-- 0.04 -->
      <g transform="translate(1747.195313 167.601711) scale(0.2 -0.2)">
       <use xlink:href="#DejaVuSans-30"/>
       <use xlink:href="#DejaVuSans-2e" x="63.623047"/>
       <use xlink:href="#DejaVuSans-30" x="95.410156"/>
       <use xlink:href="#DejaVuSans-34" x="159.033203"/>
      </g>
     </g>
    </g>
    <g id="ytick_26">
     <g id="line2d_95">
      <path d="M 1795.226563 117.807366 
L 2267.786562 117.807366 
" clip-path="url(#p2cbc2436a6)" style="fill: none; stroke: #808080; stroke-opacity: 0.5; stroke-width: 0.8; stroke-linecap: square"/>
     </g>
     <g id="line2d_96">
      <g>
       <use xlink:href="#m356211fc6e" x="1795.226563" y="117.807366" style="stroke: #000000; stroke-width: 0.8"/>
      </g>
     </g>
     <g id="text_52">
      <!-- 0.05 -->
      <g transform="translate(1747.195313 125.405803) scale(0.2 -0.2)">
       <use xlink:href="#DejaVuSans-30"/>
       <use xlink:href="#DejaVuSans-2e" x="63.623047"/>
       <use xlink:href="#DejaVuSans-30" x="95.410156"/>
       <use xlink:href="#DejaVuSans-35" x="159.033203"/>
      </g>
     </g>
    </g>
    <g id="ytick_27">
     <g id="line2d_97">
      <path d="M 1795.226563 75.611458 
L 2267.786562 75.611458 
" clip-path="url(#p2cbc2436a6)" style="fill: none; stroke: #808080; stroke-opacity: 0.5; stroke-width: 0.8; stroke-linecap: square"/>
     </g>
     <g id="line2d_98">
      <g>
       <use xlink:href="#m356211fc6e" x="1795.226563" y="75.611458" style="stroke: #000000; stroke-width: 0.8"/>
      </g>
     </g>
     <g id="text_53">
      <!-- 0.06 -->
      <g transform="translate(1747.195313 83.209895) scale(0.2 -0.2)">
       <use xlink:href="#DejaVuSans-30"/>
       <use xlink:href="#DejaVuSans-2e" x="63.623047"/>
       <use xlink:href="#DejaVuSans-30" x="95.410156"/>
       <use xlink:href="#DejaVuSans-36" x="159.033203"/>
      </g>
     </g>
    </g>
    <g id="ytick_28">
     <g id="line2d_99">
      <path d="M 1795.226563 33.41555 
L 2267.786562 33.41555 
" clip-path="url(#p2cbc2436a6)" style="fill: none; stroke: #808080; stroke-opacity: 0.5; stroke-width: 0.8; stroke-linecap: square"/>
     </g>
     <g id="line2d_100">
      <g>
       <use xlink:href="#m356211fc6e" x="1795.226563" y="33.41555" style="stroke: #000000; stroke-width: 0.8"/>
      </g>
     </g>
     <g id="text_54">
      <!-- 0.07 -->
      <g transform="translate(1747.195313 41.013987) scale(0.2 -0.2)">
       <use xlink:href="#DejaVuSans-30"/>
       <use xlink:href="#DejaVuSans-2e" x="63.623047"/>
       <use xlink:href="#DejaVuSans-30" x="95.410156"/>
       <use xlink:href="#DejaVuSans-37" x="159.033203"/>
      </g>
     </g>
    </g>
    <g id="text_55">
     <!-- Ghost rate -->
     <g transform="translate(1737.996094 243.034393) rotate(-90) scale(0.25 -0.25)">
      <defs>
       <path id="DejaVuSans-47" d="M 3809 666 
L 3809 1919 
L 2778 1919 
L 2778 2438 
L 4434 2438 
L 4434 434 
Q 4069 175 3628 42 
Q 3188 -91 2688 -91 
Q 1594 -91 976 548 
Q 359 1188 359 2328 
Q 359 3472 976 4111 
Q 1594 4750 2688 4750 
Q 3144 4750 3555 4637 
Q 3966 4525 4313 4306 
L 4313 3634 
Q 3963 3931 3569 4081 
Q 3175 4231 2741 4231 
Q 1884 4231 1454 3753 
Q 1025 3275 1025 2328 
Q 1025 1384 1454 906 
Q 1884 428 2741 428 
Q 3075 428 3337 486 
Q 3600 544 3809 666 
z
" transform="scale(0.015625)"/>
      </defs>
      <use xlink:href="#DejaVuSans-47"/>
      <use xlink:href="#DejaVuSans-68" x="77.490234"/>
      <use xlink:href="#DejaVuSans-6f" x="140.869141"/>
      <use xlink:href="#DejaVuSans-73" x="202.050781"/>
      <use xlink:href="#DejaVuSans-74" x="254.150391"/>
      <use xlink:href="#DejaVuSans-20" x="293.359375"/>
      <use xlink:href="#DejaVuSans-72" x="325.146484"/>
      <use xlink:href="#DejaVuSans-61" x="366.259766"/>
      <use xlink:href="#DejaVuSans-74" x="427.539062"/>
      <use xlink:href="#DejaVuSans-65" x="466.748047"/>
     </g>
    </g>
   </g>
   <g id="line2d_101">
    <path d="M 1816.706563 25.612376 
L 1870.406563 252.061581 
L 1881.146563 266.792198 
L 1891.886563 277.181388 
L 1902.626563 285.376109 
L 1913.366563 291.853945 
L 1924.106563 296.060146 
L 1934.846563 299.525049 
L 1945.586563 303.167518 
L 1956.326563 307.769906 
L 1967.066563 310.207342 
L 1977.806563 314.524119 
L 2031.506562 322.241935 
L 2138.906562 327.27511 
L 2246.306562 328.393911 
" clip-path="url(#p2cbc2436a6)" style="fill: none; stroke: #000000; stroke-width: 1.5; stroke-linecap: square"/>
    <defs>
     <path id="md5a6f4ca7d" d="M 0 1.5 
C 0.397805 1.5 0.77937 1.341951 1.06066 1.06066 
C 1.341951 0.77937 1.5 0.397805 1.5 0 
C 1.5 -0.397805 1.341951 -0.77937 1.06066 -1.06066 
C 0.77937 -1.341951 0.397805 -1.5 0 -1.5 
C -0.397805 -1.5 -0.77937 -1.341951 -1.06066 -1.06066 
C -1.341951 -0.77937 -1.5 -0.397805 -1.5 0 
C -1.5 0.397805 -1.341951 0.77937 -1.06066 1.06066 
C -0.77937 1.341951 -0.397805 1.5 0 1.5 
z
" style="stroke: #000000"/>
    </defs>
    <g clip-path="url(#p2cbc2436a6)">
     <use xlink:href="#md5a6f4ca7d" x="1816.706563" y="25.612376" style="stroke: #000000"/>
     <use xlink:href="#md5a6f4ca7d" x="1870.406563" y="252.061581" style="stroke: #000000"/>
     <use xlink:href="#md5a6f4ca7d" x="1881.146563" y="266.792198" style="stroke: #000000"/>
     <use xlink:href="#md5a6f4ca7d" x="1891.886563" y="277.181388" style="stroke: #000000"/>
     <use xlink:href="#md5a6f4ca7d" x="1902.626563" y="285.376109" style="stroke: #000000"/>
     <use xlink:href="#md5a6f4ca7d" x="1913.366563" y="291.853945" style="stroke: #000000"/>
     <use xlink:href="#md5a6f4ca7d" x="1924.106563" y="296.060146" style="stroke: #000000"/>
     <use xlink:href="#md5a6f4ca7d" x="1934.846563" y="299.525049" style="stroke: #000000"/>
     <use xlink:href="#md5a6f4ca7d" x="1945.586563" y="303.167518" style="stroke: #000000"/>
     <use xlink:href="#md5a6f4ca7d" x="1956.326563" y="307.769906" style="stroke: #000000"/>
     <use xlink:href="#md5a6f4ca7d" x="1967.066563" y="310.207342" style="stroke: #000000"/>
     <use xlink:href="#md5a6f4ca7d" x="1977.806563" y="314.524119" style="stroke: #000000"/>
     <use xlink:href="#md5a6f4ca7d" x="2031.506562" y="322.241935" style="stroke: #000000"/>
     <use xlink:href="#md5a6f4ca7d" x="2138.906562" y="327.27511" style="stroke: #000000"/>
     <use xlink:href="#md5a6f4ca7d" x="2246.306562" y="328.393911" style="stroke: #000000"/>
    </g>
   </g>
   <g id="patch_19">
    <path d="M 1795.226563 343.532987 
L 1795.226563 10.473299 
" style="fill: none; stroke: #000000; stroke-width: 0.8; stroke-linejoin: miter; stroke-linecap: square"/>
   </g>
   <g id="patch_20">
    <path d="M 2267.786562 343.532987 
L 2267.786562 10.473299 
" style="fill: none; stroke: #000000; stroke-width: 0.8; stroke-linejoin: miter; stroke-linecap: square"/>
   </g>
   <g id="patch_21">
    <path d="M 1795.226563 343.532987 
L 2267.786562 343.532987 
" style="fill: none; stroke: #000000; stroke-width: 0.8; stroke-linejoin: miter; stroke-linecap: square"/>
   </g>
   <g id="patch_22">
    <path d="M 1795.226563 10.473299 
L 2267.786562 10.473299 
" style="fill: none; stroke: #000000; stroke-width: 0.8; stroke-linejoin: miter; stroke-linecap: square"/>
   </g>
  </g>
 </g>
 <defs>
  <clipPath id="p6c8675ff9e">
   <rect x="83.426563" y="10.473299" width="472.56" height="333.059688"/>
  </clipPath>
  <clipPath id="pe0dd937b29">
   <rect x="654.026563" y="10.473299" width="472.56" height="333.059688"/>
  </clipPath>
  <clipPath id="p1a4cf14444">
   <rect x="1224.626563" y="10.473299" width="472.56" height="333.059688"/>
  </clipPath>
  <clipPath id="p2cbc2436a6">
   <rect x="1795.226563" y="10.473299" width="472.56" height="333.059688"/>
  </clipPath>
 </defs>
</svg>
